{
  "type": "service_account",
  "project_id": "peak-apparatus-302309",
  "private_key_id": "c17f2aad3e11bdae30d189e3b06137a136e12e11",
  "private_key": "-----BEGIN PRIVATE KEY-----\nMIIEvwIBADANBgkqhkiG9w0BAQEFAASCBKkwggSlAgEAAoIBAQDEEpjY/mpcB5A2\nc+Yuy68S2zNr4xa0hWgpeMJh+ewyetobEeQRssFGNCrMmGnJVcP6lUP7SdCVOyCC\nkt5mFKKd4KQXWVFCKtLW5NPgSFLuOQgzIngyRoBwwRcSuEYWlel5dMRyvwQk/bgr\ns06iy/aPaTn51tbuuxCLYEs+theuS47EYUz7iZQfkLMfdJNkVWsLoMq6I9nJ9PV5\nesCEnkwzIhZPJ2GWgC+nTfN3RE+7txsKssi14FWR1qk8e5vK26it2w6MaY0Flb8y\n3XiciATgIbZl+z4SrZyopcf1M4eqR3035ugjahFMW8X+r9Et5gQMyk589VjIdqEt\nfn+AFe2JAgMBAAECggEAAWP9LLmazE3koL484uNG7P21y6bjDlZNetEEb+imqDHL\nqJpKR8xAwQ+CdJkDU9sFdmcaNSBwF97arpJkFjOnQ5j7d1iG0jVQV+Q5LHbW2VTf\n0TafxTUcZbBSfZHlzVs0bX9Kgi9tbbKIj9n7TZd5h2LaEM+MdRaWjQznYhzgf7fx\nfB8g8E7UMYQWKh6DUbn3GbHM7ZIcRkg8ElviRqG/l5KBMJ1mLz2+168h6yihElhV\nGoueZWN7dbG8nE2BkG+iZ0AYuPN6sJ1BZUdnPkOSqedh9Pu9htauRykVAcyC7w1n\nZB8vFWqRNOg7XhSzPr+3fRRyXmzX4sXn+EReZSAAAQKBgQDqLGC5ozkUeB97F9kx\nXdxboTtQ4WQWyhEIXAGTD6Vqp98UTeFTPqA2y8L85ffQzBzxx206QCsSAtzQqlgc\nXtIEeUqhCGWHaxQUFydc8iBvJx8tnKyp6WxHa1PX1NWvhpiJUgpTGmv8NuDtFq5T\neZtZOo+FYU2t4cM2vZPoCEwliQKBgQDWWRiqkUhKlvwwpWqQKJMKwZVhhK4AeFb0\nDvUVKLtKkLdaLFmp+EyJ6lE9kTeo603MB2Phn2nkLWFxqhaSnu4UvKkeEVfv9i98\nxOjur3Z+4NxG7rS96+URsR1pePncWF8tOCk/OW7CGKcy1zmZxEj+inG53fYlms78\naD1Ip9GIAQKBgQDgog9rJGM1+oEgYGEtlP80OrcewAd2QQITxcaQ3tpsNHqvDIJQ\ni2u/BLmYRbXyakp9uDNURIfMcEiINk/tbxwBxKRNUzOpspMBLrDI3U81sQ6cf4W2\nPD9tR0yXZwhQp0mduMBEtbzOpYoghLhXRPk7oAxbA1szqLTNxw+h7ou1GQKBgQCb\ntkPF/R6QGRkBWdmM+fy/zptvKUyiSMmaKJeAFIPiiji4SAmnARrRAaic2jad/roY\nYrH7gKwTN6hXQyF8x/nalKcikaTZTHV45S713f9t8nnzCYvBgHF7JbhhG6IfoQ8b\nMXY9WMKOPAySUWmlu8LvLrGpPYaIEOsWz77dXhRIAQKBgQCKhlu+iT4g/WvF9q2h\ntEQ6wVwhAkEYECIrwRI4tmT2TKe/HK0b1NdGSXDpiOQVWC4E6OJSr/6YVk1JJkHe\nKVreAXP044hUtJ411+3TbeA4qEtJK7KGwtVwGZRlVeLl2Fo4/XHuJVW5b/5BKO4x\nNu9YEmzZfu8Hxv2Seyva9K0tgA==\n-----END PRIVATE KEY-----\n",
  "client_email": "acc-699@peak-apparatus-302309.iam.gserviceaccount.com",
  "client_id": "108628785445382604104",
  "auth_uri": "https://accounts.google.com/o/oauth2/auth",
  "token_uri": "https://oauth2.googleapis.com/token",
  "auth_provider_x509_cert_url": "https://www.googleapis.com/oauth2/v1/certs",
  "client_x509_cert_url": "https://www.googleapis.com/robot/v1/metadata/x509/acc-699%40peak-apparatus-302309.iam.gserviceaccount.com"
}
