EventID,pathway,Node,DecisionTable,Attribute,Value,Date
559,Path1,Initial_patient_GP_Visit,,,,2011-08-22T00:00:00
559,Path1,Initial_patient_GP_Visit,,NhsNumber,7832003812,2011-08-22T00:00:00
560,Path1,patient_assessment,,,,2011-08-22T00:00:00
561,Path1,test_request,,,,2011-08-22T00:19:00
561,Path1,test_request,,no_attr,,2011-08-22T00:19:00
561,Path1,test_request,,PatientRcorded,TRUE,2011-08-22T00:19:00
562,Path1,Specimen_check,,,,2011-08-22T00:19:00
562,Path1,Specimen_check,,PerformingOrg,"{'Code': 'TKD13', 'DisplayName': 'Midtown District Hospital', 'AddressLine': 'Beckett Street', 'AddressCity': 'Leeds', 'AddressDistrict': 'West YorkShire', 'AddressPostalCode': 'LS9 7TF'}",2011-08-22T00:19:00
562,Path1,Specimen_check,,RequestingHCP,"{'Code': 'G6040649', 'DisplayName': 'Dr Jane Green'}",2011-08-22T00:19:00
562,Path1,Specimen_check,,OrgRequesting,"{'Code': 'D82015', 'DisplayName': 'Manor GP Practice', 'AddressLine': '30/32 Bridge Street', 'AddressCity': 'Downham Market', 'AddressDistrict': 'Norfolk', 'AddressPostalCode': 'PE38 9DH'}",2011-08-22T00:19:00
563,Path1,specimen_ready_for_test,,,,2011-08-22T00:19:00
563,Path1,specimen_ready_for_test,,Request,"{'Code': '26604007', 'DisplayName': 'FBC - Full blood count', 'text': 'FBC'}",2011-08-22T00:19:00
563,Path1,specimen_ready_for_test,,CollectingHCP,"{'Code': 'J7040649', 'DisplayName': 'Alice Jones'}",2011-08-22T00:19:00
563,Path1,specimen_ready_for_test,,OrgCollecting,"{'Code': 'D82015', 'DisplayName': 'Manor GP Practice', 'AddressLine': '30/32 Bridge Street', 'AddressCity': 'Downham Market', 'AddressDistrict': 'Norfolk', 'AddressPostalCode': 'PE38 9DH'}",2011-08-22T00:19:00
563,Path1,specimen_ready_for_test,,Specimen1,"{'Code': '53130003', 'DisplayName': 'Venous blood (substance)'}",2011-08-22T00:19:00
563,Path1,specimen_ready_for_test,,Specimen,"{'Code': '53130003', 'DisplayName': 'Venous blood (substance)'}",2011-08-22T00:19:00
564,Path1,lab_test,,,,2011-08-22T00:19:00
565,Path1,test_report,,,,2011-08-22T00:49:00
565,Path1,test_report,,PerformingHCP,"{'Code': 'J7040649', 'DisplayName': 'Alice Jones'}",2011-08-22T00:49:00
565,Path1,test_report,,obs,"{'code': '1000381000000105', 'DisplayName': 'Se prostate specific Ag level', 'value': 72, 'unit': 'ug/L', 'unit_code': 'ug/L', 'system': 'http://unitsofmeasure.org'}",2011-08-22T00:49:00
566,Path1,send_report,,,,2011-08-22T00:49:00
567,Path1,receive_report,,,,2011-08-22T00:49:00
567,Path1,receive_report,,Report,"{'Code': '1028441000000104', 'DisplayName': 'Potassium Level (Observable entity)'}",2011-08-22T00:49:00
568,Path1,GP_checks_report,,,,2011-08-22T00:49:00
569,Path1,inform_patient,,,,2011-08-22T00:49:00
570,Path1,Finish,,,,2011-08-22T02:49:00
570,Path1,Finish,,listing_provided,TRUE,2011-08-22T02:49:00
570,Path1,Finish,,json_provided,TRUE,2011-08-22T02:49:00
571,Path1,Finish,,,,2011-08-22T02:49:00
