EventID,pathway,Node,DecisionTable,Attribute,Value,Date
221,Path1,Initial_patient_GP_Visit,,,,1974-05-15T00:00:00
221,Path1,Initial_patient_GP_Visit,,NhsNumber,7832003812,1974-05-15T00:00:00
222,Path1,patient_assessment,,,,1974-05-15T00:00:00
223,Path1,test_request,,,,1974-05-15T00:48:00
223,Path1,test_request,,no_attr,,1974-05-15T00:48:00
223,Path1,test_request,,PatientRcorded,TRUE,1974-05-15T00:48:00
224,Path1,Specimen_check,,,,1974-05-15T00:48:00
224,Path1,Specimen_check,,PerformingOrg,"{'Code': 'TKD13', 'DisplayName': 'Midtown District Hospital', 'AddressLine': 'Beckett Street', 'AddressCity': 'Leeds', 'AddressDistrict': 'West YorkShire', 'AddressPostalCode': 'LS9 7TF'}",1974-05-15T00:48:00
224,Path1,Specimen_check,,RequestingHCP,"{'Code': 'G6040649', 'DisplayName': 'Dr Jane Green'}",1974-05-15T00:48:00
224,Path1,Specimen_check,,OrgRequesting,"{'Code': 'D82015', 'DisplayName': 'Manor GP Practice', 'AddressLine': '30/32 Bridge Street', 'AddressCity': 'Downham Market', 'AddressDistrict': 'Norfolk', 'AddressPostalCode': 'PE38 9DH'}",1974-05-15T00:48:00
225,Path1,specimen_ready_for_test,,,,1974-05-15T00:48:00
225,Path1,specimen_ready_for_test,,Request,"{'Code': '26604007', 'DisplayName': 'FBC - Full blood count', 'text': 'FBC'}",1974-05-15T00:48:00
225,Path1,specimen_ready_for_test,,CollectingHCP,"{'Code': 'J7040649', 'DisplayName': 'Alice Jones'}",1974-05-15T00:48:00
225,Path1,specimen_ready_for_test,,OrgCollecting,"{'Code': 'D82015', 'DisplayName': 'Manor GP Practice', 'AddressLine': '30/32 Bridge Street', 'AddressCity': 'Downham Market', 'AddressDistrict': 'Norfolk', 'AddressPostalCode': 'PE38 9DH'}",1974-05-15T00:48:00
225,Path1,specimen_ready_for_test,,Specimen1,"{'Code': '53130003', 'DisplayName': 'Venous blood (substance)'}",1974-05-15T00:48:00
225,Path1,specimen_ready_for_test,,Specimen,"{'Code': '53130003', 'DisplayName': 'Venous blood (substance)'}",1974-05-15T00:48:00
226,Path1,lab_test,,,,1974-05-15T00:48:00
227,Path1,test_report,,,,1974-05-15T01:09:00
227,Path1,test_report,,PerformingHCP,"{'Code': 'J7040649', 'DisplayName': 'Alice Jones'}",1974-05-15T01:09:00
227,Path1,test_report,,obs,"OrderedDict([('id', '1'), ('code', '1000381000000105'), ('DisplayName', 'Se prostate specific Ag level'), ('value', '72'), ('unit', 'ug/L'), ('unit_code', 'ug/L'), ('system', 'http://unitsofmeasure.org')])",1974-05-15T01:09:00
228,Path1,send_report,,,,1974-05-15T01:09:00
229,Path1,receive_report,,,,1974-05-15T01:09:00
229,Path1,receive_report,,Report,"{'Code': '1028441000000104', 'DisplayName': 'Potassium Level (Observable entity)'}",1974-05-15T01:09:00
230,Path1,GP_checks_report,,,,1974-05-15T01:09:00
231,Path1,inform_patient,,,,1974-05-15T01:09:00
232,Path1,Finish,,,,1974-05-15T10:09:00
232,Path1,Finish,,listing_provided,TRUE,1974-05-15T10:09:00
232,Path1,Finish,,json_provided,TRUE,1974-05-15T10:09:00
233,Path1,Finish,,,,1974-05-15T10:09:00
