EventID,pathway,Node,DecisionTable,Attribute,Value,Date
611,Path1,Initial_patient_GP_Visit,,,,2019-04-06T00:00:00
611,Path1,Initial_patient_GP_Visit,,NhsNumber,7832003812,2019-04-06T00:00:00
612,Path1,patient_assessment,,,,2019-04-06T00:00:00
613,Path1,test_request,,,,2019-04-06T00:23:00
613,Path1,test_request,,no_attr,,2019-04-06T00:23:00
613,Path1,test_request,,PatientRcorded,TRUE,2019-04-06T00:23:00
614,Path1,Specimen_check,,,,2019-04-06T00:23:00
614,Path1,Specimen_check,,PerformingOrg,"{'Code': 'TKD13', 'DisplayName': 'Midtown District Hospital', 'AddressLine': 'Beckett Street', 'AddressCity': 'Leeds', 'AddressDistrict': 'West YorkShire', 'AddressPostalCode': 'LS9 7TF'}",2019-04-06T00:23:00
614,Path1,Specimen_check,,RequestingHCP,"{'Code': 'G6040649', 'DisplayName': 'Dr Jane Green'}",2019-04-06T00:23:00
614,Path1,Specimen_check,,OrgRequesting,"{'Code': 'D82015', 'DisplayName': 'Manor GP Practice', 'AddressLine': '30/32 Bridge Street', 'AddressCity': 'Downham Market', 'AddressDistrict': 'Norfolk', 'AddressPostalCode': 'PE38 9DH'}",2019-04-06T00:23:00
615,Path1,specimen_ready_for_test,,,,2019-04-06T00:23:00
615,Path1,specimen_ready_for_test,,Request,"{'Code': '26604007', 'DisplayName': 'FBC - Full blood count', 'text': 'FBC'}",2019-04-06T00:23:00
615,Path1,specimen_ready_for_test,,CollectingHCP,"{'Code': 'J7040649', 'DisplayName': 'Alice Jones'}",2019-04-06T00:23:00
615,Path1,specimen_ready_for_test,,OrgCollecting,"{'Code': 'D82015', 'DisplayName': 'Manor GP Practice', 'AddressLine': '30/32 Bridge Street', 'AddressCity': 'Downham Market', 'AddressDistrict': 'Norfolk', 'AddressPostalCode': 'PE38 9DH'}",2019-04-06T00:23:00
615,Path1,specimen_ready_for_test,,Specimen1,"{'Code': '53130003', 'DisplayName': 'Venous blood (substance)'}",2019-04-06T00:23:00
615,Path1,specimen_ready_for_test,,Specimen,"{'Code': '53130003', 'DisplayName': 'Venous blood (substance)'}",2019-04-06T00:23:00
616,Path1,lab_test,,,,2019-04-06T00:23:00
617,Path1,test_report,,,,2019-04-06T00:51:00
617,Path1,test_report,,PerformingHCP,"{'Code': 'J7040649', 'DisplayName': 'Alice Jones'}",2019-04-06T00:51:00
617,Path1,test_report,,obs,"OrderedDict([('id', '10'), ('code', '1107511000000100'), ('DisplayName', 'Haemoglobin mass concentration in blood'), ('value', '134'), ('unit', 'g/L'), ('unit_code', 'g/L'), ('system', 'http://unitsofmeasure.org')])",2019-04-06T00:51:00
618,Path1,send_report,,,,2019-04-06T00:51:00
619,Path1,receive_report,,,,2019-04-06T00:51:00
619,Path1,receive_report,,Report,"{'Code': '1028441000000104', 'DisplayName': 'Potassium Level (Observable entity)'}",2019-04-06T00:51:00
620,Path1,GP_checks_report,,,,2019-04-06T00:51:00
621,Path1,inform_patient,,,,2019-04-06T00:51:00
622,Path1,Finish,,,,2019-04-06T11:51:00
622,Path1,Finish,,listing_provided,TRUE,2019-04-06T11:51:00
622,Path1,Finish,,json_provided,TRUE,2019-04-06T11:51:00
623,Path1,Finish,,,,2019-04-06T11:51:00
