EventID,pathway,Node,DecisionTable,Attribute,Value,Date
377,Path1,Initial_patient_GP_Visit,,,,1984-09-04T00:00:00
377,Path1,Initial_patient_GP_Visit,,NhsNumber,7832003812,1984-09-04T00:00:00
378,Path1,patient_assessment,,,,1984-09-04T00:00:00
379,Path1,test_request,,,,1984-09-04T00:38:00
379,Path1,test_request,,no_attr,,1984-09-04T00:38:00
379,Path1,test_request,,PatientRcorded,TRUE,1984-09-04T00:38:00
380,Path1,Specimen_check,,,,1984-09-04T00:38:00
380,Path1,Specimen_check,,PerformingOrg,"{'Code': 'TKD13', 'DisplayName': 'Midtown District Hospital', 'AddressLine': 'Beckett Street', 'AddressCity': 'Leeds', 'AddressDistrict': 'West YorkShire', 'AddressPostalCode': 'LS9 7TF'}",1984-09-04T00:38:00
380,Path1,Specimen_check,,RequestingHCP,"{'Code': 'G6040649', 'DisplayName': 'Dr Jane Green'}",1984-09-04T00:38:00
380,Path1,Specimen_check,,OrgRequesting,"{'Code': 'D82015', 'DisplayName': 'Manor GP Practice', 'AddressLine': '30/32 Bridge Street', 'AddressCity': 'Downham Market', 'AddressDistrict': 'Norfolk', 'AddressPostalCode': 'PE38 9DH'}",1984-09-04T00:38:00
381,Path1,specimen_ready_for_test,,,,1984-09-04T00:38:00
381,Path1,specimen_ready_for_test,,Request,"{'Code': '26604007', 'DisplayName': 'FBC - Full blood count', 'text': 'FBC'}",1984-09-04T00:38:00
381,Path1,specimen_ready_for_test,,CollectingHCP,"{'Code': 'J7040649', 'DisplayName': 'Alice Jones'}",1984-09-04T00:38:00
381,Path1,specimen_ready_for_test,,OrgCollecting,"{'Code': 'D82015', 'DisplayName': 'Manor GP Practice', 'AddressLine': '30/32 Bridge Street', 'AddressCity': 'Downham Market', 'AddressDistrict': 'Norfolk', 'AddressPostalCode': 'PE38 9DH'}",1984-09-04T00:38:00
381,Path1,specimen_ready_for_test,,Specimen1,"{'Code': '53130003', 'DisplayName': 'Venous blood (substance)'}",1984-09-04T00:38:00
381,Path1,specimen_ready_for_test,,Specimen,"{'Code': '53130003', 'DisplayName': 'Venous blood (substance)'}",1984-09-04T00:38:00
382,Path1,lab_test,,,,1984-09-04T00:38:00
383,Path1,test_report,,,,1984-09-04T00:47:00
383,Path1,test_report,,PerformingHCP,"{'Code': 'J7040649', 'DisplayName': 'Alice Jones'}",1984-09-04T00:47:00
383,Path1,test_report,,obs,"OrderedDict([('id', '11'), ('code', '1110441000000100'), ('DisplayName', 'White blood cell count in blood'), ('value', '6.1'), ('unit', '10^9/L'), ('unit_code', '10*9/L'), ('system', 'http://unitsofmeasure.org')])",1984-09-04T00:47:00
384,Path1,send_report,,,,1984-09-04T00:47:00
385,Path1,receive_report,,,,1984-09-04T00:47:00
385,Path1,receive_report,,Report,"{'Code': '1028441000000104', 'DisplayName': 'Potassium Level (Observable entity)'}",1984-09-04T00:47:00
386,Path1,GP_checks_report,,,,1984-09-04T00:47:00
387,Path1,inform_patient,,,,1984-09-04T00:47:00
388,Path1,Finish,,,,1984-09-04T07:47:00
388,Path1,Finish,,listing_provided,TRUE,1984-09-04T07:47:00
388,Path1,Finish,,json_provided,TRUE,1984-09-04T07:47:00
389,Path1,Finish,,,,1984-09-04T07:47:00
