EventID,pathway,Node,DecisionTable,Attribute,Value,Date
78,Path1,Initial_patient_GP_Visit,,,,1950-10-07T00:00:00
78,Path1,Initial_patient_GP_Visit,,NhsNumber,7832003812,1950-10-07T00:00:00
79,Path1,patient_assessment,,,,1950-10-07T00:00:00
80,Path1,test_request,,,,1950-10-07T00:24:00
80,Path1,test_request,,no_attr,,1950-10-07T00:24:00
80,Path1,test_request,,PatientRcorded,TRUE,1950-10-07T00:24:00
81,Path1,Specimen_check,,,,1950-10-07T00:24:00
81,Path1,Specimen_check,,PerformingOrg,"{'Code': 'TKD13', 'DisplayName': 'Midtown District Hospital', 'AddressLine': 'Beckett Street', 'AddressCity': 'Leeds', 'AddressDistrict': 'West YorkShire', 'AddressPostalCode': 'LS9 7TF'}",1950-10-07T00:24:00
81,Path1,Specimen_check,,RequestingHCP,"{'Code': 'G6040649', 'DisplayName': 'Dr Jane Green'}",1950-10-07T00:24:00
81,Path1,Specimen_check,,OrgRequesting,"{'Code': 'D82015', 'DisplayName': 'Manor GP Practice', 'AddressLine': '30/32 Bridge Street', 'AddressCity': 'Downham Market', 'AddressDistrict': 'Norfolk', 'AddressPostalCode': 'PE38 9DH'}",1950-10-07T00:24:00
82,Path1,specimen_ready_for_test,,,,1950-10-07T00:24:00
82,Path1,specimen_ready_for_test,,Request,"{'Code': '26604007', 'DisplayName': 'FBC - Full blood count', 'text': 'FBC'}",1950-10-07T00:24:00
82,Path1,specimen_ready_for_test,,CollectingHCP,"{'Code': 'J7040649', 'DisplayName': 'Alice Jones'}",1950-10-07T00:24:00
82,Path1,specimen_ready_for_test,,OrgCollecting,"{'Code': 'D82015', 'DisplayName': 'Manor GP Practice', 'AddressLine': '30/32 Bridge Street', 'AddressCity': 'Downham Market', 'AddressDistrict': 'Norfolk', 'AddressPostalCode': 'PE38 9DH'}",1950-10-07T00:24:00
82,Path1,specimen_ready_for_test,,Specimen1,"{'Code': '53130003', 'DisplayName': 'Venous blood (substance)'}",1950-10-07T00:24:00
82,Path1,specimen_ready_for_test,,Specimen,"{'Code': '53130003', 'DisplayName': 'Venous blood (substance)'}",1950-10-07T00:24:00
83,Path1,lab_test,,,,1950-10-07T00:24:00
84,Path1,test_report,,,,1950-10-07T00:34:00
84,Path1,test_report,,PerformingHCP,"{'Code': 'J7040649', 'DisplayName': 'Alice Jones'}",1950-10-07T00:34:00
84,Path1,test_report,,obs,"OrderedDict([('id', '17'), ('code', '67541000237108'), ('DisplayName', 'Lymphocyte count in blood'), ('value', '1.45'), ('unit', '10^9/L'), ('unit_code', '10*9/L'), ('system', 'http://unitsofmeasure.org')])",1950-10-07T00:34:00
85,Path1,send_report,,,,1950-10-07T00:34:00
86,Path1,receive_report,,,,1950-10-07T00:34:00
86,Path1,receive_report,,Report,"{'Code': '1028441000000104', 'DisplayName': 'Potassium Level (Observable entity)'}",1950-10-07T00:34:00
87,Path1,GP_checks_report,,,,1950-10-07T00:34:00
88,Path1,inform_patient,,,,1950-10-07T00:34:00
89,Path1,Finish,,,,1950-10-07T11:34:00
89,Path1,Finish,,listing_provided,TRUE,1950-10-07T11:34:00
89,Path1,Finish,,json_provided,TRUE,1950-10-07T11:34:00
90,Path1,Finish,,,,1950-10-07T11:34:00
