EventID,pathway,Node,DecisionTable,Attribute,Value,Date
195,Path1,Initial_patient_GP_Visit,,,,1963-11-17T00:00:00
195,Path1,Initial_patient_GP_Visit,,NhsNumber,7832003812,1963-11-17T00:00:00
196,Path1,patient_assessment,,,,1963-11-17T00:00:00
197,Path1,test_request,,,,1963-11-17T00:28:00
197,Path1,test_request,,no_attr,,1963-11-17T00:28:00
197,Path1,test_request,,PatientRcorded,TRUE,1963-11-17T00:28:00
198,Path1,Specimen_check,,,,1963-11-17T00:28:00
198,Path1,Specimen_check,,PerformingOrg,"{'Code': 'TKD13', 'DisplayName': 'Midtown District Hospital', 'AddressLine': 'Beckett Street', 'AddressCity': 'Leeds', 'AddressDistrict': 'West YorkShire', 'AddressPostalCode': 'LS9 7TF'}",1963-11-17T00:28:00
198,Path1,Specimen_check,,RequestingHCP,"{'Code': 'G6040649', 'DisplayName': 'Dr Jane Green'}",1963-11-17T00:28:00
198,Path1,Specimen_check,,OrgRequesting,"{'Code': 'D82015', 'DisplayName': 'Manor GP Practice', 'AddressLine': '30/32 Bridge Street', 'AddressCity': 'Downham Market', 'AddressDistrict': 'Norfolk', 'AddressPostalCode': 'PE38 9DH'}",1963-11-17T00:28:00
199,Path1,specimen_ready_for_test,,,,1963-11-17T00:28:00
199,Path1,specimen_ready_for_test,,Request,"{'Code': '26604007', 'DisplayName': 'FBC - Full blood count', 'text': 'FBC'}",1963-11-17T00:28:00
199,Path1,specimen_ready_for_test,,CollectingHCP,"{'Code': 'J7040649', 'DisplayName': 'Alice Jones'}",1963-11-17T00:28:00
199,Path1,specimen_ready_for_test,,OrgCollecting,"{'Code': 'D82015', 'DisplayName': 'Manor GP Practice', 'AddressLine': '30/32 Bridge Street', 'AddressCity': 'Downham Market', 'AddressDistrict': 'Norfolk', 'AddressPostalCode': 'PE38 9DH'}",1963-11-17T00:28:00
199,Path1,specimen_ready_for_test,,Specimen1,"{'Code': '53130003', 'DisplayName': 'Venous blood (substance)'}",1963-11-17T00:28:00
199,Path1,specimen_ready_for_test,,Specimen,"{'Code': '53130003', 'DisplayName': 'Venous blood (substance)'}",1963-11-17T00:28:00
200,Path1,lab_test,,,,1963-11-17T00:28:00
201,Path1,test_report,,,,1963-11-17T00:48:00
201,Path1,test_report,,PerformingHCP,"{'Code': 'J7040649', 'DisplayName': 'Alice Jones'}",1963-11-17T00:48:00
201,Path1,test_report,,obs,"OrderedDict([('id', '18'), ('code', '1107991000000100'), ('DisplayName', 'Monocyte count in blood'), ('value', '0.56'), ('unit', '10^9/L'), ('unit_code', '10*9/L'), ('system', 'http://unitsofmeasure.org')])",1963-11-17T00:48:00
202,Path1,send_report,,,,1963-11-17T00:48:00
203,Path1,receive_report,,,,1963-11-17T00:48:00
203,Path1,receive_report,,Report,"{'Code': '1028441000000104', 'DisplayName': 'Potassium Level (Observable entity)'}",1963-11-17T00:48:00
204,Path1,GP_checks_report,,,,1963-11-17T00:48:00
205,Path1,inform_patient,,,,1963-11-17T00:48:00
206,Path1,Finish,,,,1963-11-17T20:48:00
206,Path1,Finish,,listing_provided,TRUE,1963-11-17T20:48:00
206,Path1,Finish,,json_provided,TRUE,1963-11-17T20:48:00
207,Path1,Finish,,,,1963-11-17T20:48:00
