EventID,pathway,Node,DecisionTable,Attribute,Value,Date
130,Path1,Initial_patient_GP_Visit,,,,1955-10-07T00:00:00
130,Path1,Initial_patient_GP_Visit,,NhsNumber,7832003812,1955-10-07T00:00:00
131,Path1,patient_assessment,,,,1955-10-07T00:00:00
132,Path1,test_request,,,,1955-10-07T00:43:00
132,Path1,test_request,,no_attr,,1955-10-07T00:43:00
132,Path1,test_request,,PatientRcorded,TRUE,1955-10-07T00:43:00
133,Path1,Specimen_check,,,,1955-10-07T00:43:00
133,Path1,Specimen_check,,PerformingOrg,"{'Code': 'TKD13', 'DisplayName': 'Midtown District Hospital', 'AddressLine': 'Beckett Street', 'AddressCity': 'Leeds', 'AddressDistrict': 'West YorkShire', 'AddressPostalCode': 'LS9 7TF'}",1955-10-07T00:43:00
133,Path1,Specimen_check,,RequestingHCP,"{'Code': 'G6040649', 'DisplayName': 'Dr Jane Green'}",1955-10-07T00:43:00
133,Path1,Specimen_check,,OrgRequesting,"{'Code': 'D82015', 'DisplayName': 'Manor GP Practice', 'AddressLine': '30/32 Bridge Street', 'AddressCity': 'Downham Market', 'AddressDistrict': 'Norfolk', 'AddressPostalCode': 'PE38 9DH'}",1955-10-07T00:43:00
134,Path1,specimen_ready_for_test,,,,1955-10-07T00:43:00
134,Path1,specimen_ready_for_test,,Request,"{'Code': '26604007', 'DisplayName': 'FBC - Full blood count', 'text': 'FBC'}",1955-10-07T00:43:00
134,Path1,specimen_ready_for_test,,CollectingHCP,"{'Code': 'J7040649', 'DisplayName': 'Alice Jones'}",1955-10-07T00:43:00
134,Path1,specimen_ready_for_test,,OrgCollecting,"{'Code': 'D82015', 'DisplayName': 'Manor GP Practice', 'AddressLine': '30/32 Bridge Street', 'AddressCity': 'Downham Market', 'AddressDistrict': 'Norfolk', 'AddressPostalCode': 'PE38 9DH'}",1955-10-07T00:43:00
134,Path1,specimen_ready_for_test,,Specimen1,"{'Code': '53130003', 'DisplayName': 'Venous blood (substance)'}",1955-10-07T00:43:00
134,Path1,specimen_ready_for_test,,Specimen,"{'Code': '53130003', 'DisplayName': 'Venous blood (substance)'}",1955-10-07T00:43:00
135,Path1,lab_test,,,,1955-10-07T00:43:00
136,Path1,test_report,,,,1955-10-07T01:13:00
136,Path1,test_report,,PerformingHCP,"{'Code': 'J7040649', 'DisplayName': 'Alice Jones'}",1955-10-07T01:13:00
136,Path1,test_report,,obs,"OrderedDict([('id', '34'), ('code', '1107011000000100'), ('DisplayName', 'Creatinine substance concentration in urine'), ('value', '4.2'), ('unit', 'mmol/L'), ('unit_code', 'mmol/L'), ('system', 'http://unitsofmeasure.org')])",1955-10-07T01:13:00
137,Path1,send_report,,,,1955-10-07T01:13:00
138,Path1,receive_report,,,,1955-10-07T01:13:00
138,Path1,receive_report,,Report,"{'Code': '1028441000000104', 'DisplayName': 'Potassium Level (Observable entity)'}",1955-10-07T01:13:00
139,Path1,GP_checks_report,,,,1955-10-07T01:13:00
140,Path1,inform_patient,,,,1955-10-07T01:13:00
141,Path1,Finish,,,,1955-10-07T07:13:00
141,Path1,Finish,,listing_provided,TRUE,1955-10-07T07:13:00
141,Path1,Finish,,json_provided,TRUE,1955-10-07T07:13:00
142,Path1,Finish,,,,1955-10-07T07:13:00
