EventID,pathway,Node,DecisionTable,Attribute,Value,Date
338,Path1,Initial_patient_GP_Visit,,,,1982-02-25T00:00:00
338,Path1,Initial_patient_GP_Visit,,NhsNumber,7832003812,1982-02-25T00:00:00
339,Path1,patient_assessment,,,,1982-02-25T00:00:00
340,Path1,test_request,,,,1982-02-25T00:10:00
340,Path1,test_request,,no_attr,,1982-02-25T00:10:00
340,Path1,test_request,,PatientRcorded,TRUE,1982-02-25T00:10:00
341,Path1,Specimen_check,,,,1982-02-25T00:10:00
341,Path1,Specimen_check,,PerformingOrg,"{'Code': 'TKD13', 'DisplayName': 'Midtown District Hospital', 'AddressLine': 'Beckett Street', 'AddressCity': 'Leeds', 'AddressDistrict': 'West YorkShire', 'AddressPostalCode': 'LS9 7TF'}",1982-02-25T00:10:00
341,Path1,Specimen_check,,RequestingHCP,"{'Code': 'G6040649', 'DisplayName': 'Dr Jane Green'}",1982-02-25T00:10:00
341,Path1,Specimen_check,,OrgRequesting,"{'Code': 'D82015', 'DisplayName': 'Manor GP Practice', 'AddressLine': '30/32 Bridge Street', 'AddressCity': 'Downham Market', 'AddressDistrict': 'Norfolk', 'AddressPostalCode': 'PE38 9DH'}",1982-02-25T00:10:00
342,Path1,specimen_ready_for_test,,,,1982-02-25T00:10:00
342,Path1,specimen_ready_for_test,,Request,"{'Code': '26604007', 'DisplayName': 'FBC - Full blood count', 'text': 'FBC'}",1982-02-25T00:10:00
342,Path1,specimen_ready_for_test,,CollectingHCP,"{'Code': 'J7040649', 'DisplayName': 'Alice Jones'}",1982-02-25T00:10:00
342,Path1,specimen_ready_for_test,,OrgCollecting,"{'Code': 'D82015', 'DisplayName': 'Manor GP Practice', 'AddressLine': '30/32 Bridge Street', 'AddressCity': 'Downham Market', 'AddressDistrict': 'Norfolk', 'AddressPostalCode': 'PE38 9DH'}",1982-02-25T00:10:00
342,Path1,specimen_ready_for_test,,Specimen1,"{'Code': '53130003', 'DisplayName': 'Venous blood (substance)'}",1982-02-25T00:10:00
342,Path1,specimen_ready_for_test,,Specimen,"{'Code': '53130003', 'DisplayName': 'Venous blood (substance)'}",1982-02-25T00:10:00
343,Path1,lab_test,,,,1982-02-25T00:10:00
344,Path1,test_report,,,,1982-02-25T00:11:00
344,Path1,test_report,,PerformingHCP,"{'Code': 'J7040649', 'DisplayName': 'Alice Jones'}",1982-02-25T00:11:00
344,Path1,test_report,,obs,"OrderedDict([('id', '35'), ('code', '1109411000000100'), ('DisplayName', 'TSH (thyroid stimulating hormone) arbitrary concentration in plasma'), ('value', '0.10'), ('unit', 'mU/L'), ('unit_code', 'mU/L'), ('system', 'http://unitsofmeasure.org')])",1982-02-25T00:11:00
345,Path1,send_report,,,,1982-02-25T00:11:00
346,Path1,receive_report,,,,1982-02-25T00:11:00
346,Path1,receive_report,,Report,"{'Code': '1028441000000104', 'DisplayName': 'Potassium Level (Observable entity)'}",1982-02-25T00:11:00
347,Path1,GP_checks_report,,,,1982-02-25T00:11:00
348,Path1,inform_patient,,,,1982-02-25T00:11:00
349,Path1,Finish,,,,1982-02-25T15:11:00
349,Path1,Finish,,listing_provided,TRUE,1982-02-25T15:11:00
349,Path1,Finish,,json_provided,TRUE,1982-02-25T15:11:00
350,Path1,Finish,,,,1982-02-25T15:11:00
