EventID,pathway,Node,DecisionTable,Attribute,Value,Date
182,Path1,Initial_patient_GP_Visit,,,,1963-08-01T00:00:00
182,Path1,Initial_patient_GP_Visit,,NhsNumber,7832003812,1963-08-01T00:00:00
183,Path1,patient_assessment,,,,1963-08-01T00:00:00
184,Path1,test_request,,,,1963-08-01T00:31:00
185,Path1,Specimen_check,,,,1963-08-01T00:31:00
186,Path1,specimen_ready_for_test,,,,1963-08-01T00:31:00
187,Path1,lab_test,,,,1963-08-01T00:31:00
188,Path1,test_report,,,,1963-08-01T00:39:00
189,Path1,send_report,,,,1963-08-01T00:39:00
190,Path1,receive_report,,,,1963-08-01T00:39:00
191,Path1,GP_checks_report,,,,1963-08-01T00:39:00
192,Path1,inform_patient,,,,1963-08-01T00:39:00
193,Path1,Finish,,,,1963-08-01T17:39:00
194,Path1,Finish,,,,1963-08-01T17:39:00
