EventID,pathway,Node,DecisionTable,Attribute,Value,Date
169,Path1,Initial_patient_GP_Visit,,,,1963-01-28T00:00:00
169,Path1,Initial_patient_GP_Visit,,NhsNumber,7832003812,1963-01-28T00:00:00
170,Path1,patient_assessment,,,,1963-01-28T00:00:00
171,Path1,test_request,,,,1963-01-28T00:19:00
172,Path1,Specimen_check,,,,1963-01-28T00:19:00
173,Path1,specimen_ready_for_test,,,,1963-01-28T00:19:00
174,Path1,lab_test,,,,1963-01-28T00:19:00
175,Path1,test_report,,,,1963-01-28T00:28:00
176,Path1,send_report,,,,1963-01-28T00:28:00
177,Path1,receive_report,,,,1963-01-28T00:28:00
178,Path1,GP_checks_report,,,,1963-01-28T00:28:00
179,Path1,inform_patient,,,,1963-01-28T00:28:00
180,Path1,Finish,,,,1963-01-28T11:28:00
181,Path1,Finish,,,,1963-01-28T11:28:00
