EventID,pathway,Node,DecisionTable,Attribute,Value,Date
273,Path1,Initial_patient_GP_Visit,,,,1979-01-21T00:00:00
273,Path1,Initial_patient_GP_Visit,,NhsNumber,7832003812,1979-01-21T00:00:00
274,Path1,patient_assessment,,,,1979-01-21T00:00:00
275,Path1,test_request,,,,1979-01-21T00:29:00
276,Path1,Specimen_check,,,,1979-01-21T00:29:00
277,Path1,specimen_ready_for_test,,,,1979-01-21T00:29:00
278,Path1,lab_test,,,,1979-01-21T00:29:00
279,Path1,test_report,,,,1979-01-21T00:46:00
280,Path1,send_report,,,,1979-01-21T00:46:00
281,Path1,receive_report,,,,1979-01-21T00:46:00
282,Path1,GP_checks_report,,,,1979-01-21T00:46:00
283,Path1,inform_patient,,,,1979-01-21T00:46:00
284,Path1,Finish,,,,1979-01-21T10:46:00
285,Path1,Finish,,,,1979-01-21T10:46:00
