EventID,pathway,Node,DecisionTable,Attribute,Value,Date
143,Path1,Initial_patient_GP_Visit,,,,1957-04-03T00:00:00
143,Path1,Initial_patient_GP_Visit,,NhsNumber,7832003812,1957-04-03T00:00:00
144,Path1,patient_assessment,,,,1957-04-03T00:00:00
145,Path1,test_request,,,,1957-04-03T00:46:00
146,Path1,Specimen_check,,,,1957-04-03T00:46:00
147,Path1,specimen_ready_for_test,,,,1957-04-03T00:46:00
148,Path1,lab_test,,,,1957-04-03T00:46:00
149,Path1,test_report,,,,1957-04-03T00:52:00
150,Path1,send_report,,,,1957-04-03T00:52:00
151,Path1,receive_report,,,,1957-04-03T00:52:00
152,Path1,GP_checks_report,,,,1957-04-03T00:52:00
153,Path1,inform_patient,,,,1957-04-03T00:52:00
154,Path1,Finish,,,,1957-04-03T10:52:00
155,Path1,Finish,,,,1957-04-03T10:52:00
