EventID,pathway,Node,DecisionTable,Attribute,Value,Date
624,Path1,Initial_patient_GP_Visit,,,,2019-04-08T00:00:00
624,Path1,Initial_patient_GP_Visit,,NhsNumber,7832003812,2019-04-08T00:00:00
625,Path1,patient_assessment,,,,2019-04-08T00:00:00
626,Path1,test_request,,,,2019-04-08T00:41:00
627,Path1,Specimen_check,,,,2019-04-08T00:41:00
628,Path1,specimen_ready_for_test,,,,2019-04-08T00:41:00
629,Path1,lab_test,,,,2019-04-08T00:41:00
630,Path1,test_report,,,,2019-04-08T01:07:00
631,Path1,send_report,,,,2019-04-08T01:07:00
632,Path1,receive_report,,,,2019-04-08T01:07:00
633,Path1,GP_checks_report,,,,2019-04-08T01:07:00
634,Path1,inform_patient,,,,2019-04-08T01:07:00
635,Path1,Finish,,,,2019-04-08T05:07:00
636,Path1,Finish,,,,2019-04-08T05:07:00
