EventID,pathway,Node,DecisionTable,Attribute,Value,Date
455,Path1,Initial_patient_GP_Visit,,,,1992-05-08T00:00:00
455,Path1,Initial_patient_GP_Visit,,NhsNumber,7832003812,1992-05-08T00:00:00
456,Path1,patient_assessment,,,,1992-05-08T00:00:00
457,Path1,test_request,,,,1992-05-08T00:15:00
458,Path1,Specimen_check,,,,1992-05-08T00:15:00
459,Path1,specimen_ready_for_test,,,,1992-05-08T00:15:00
460,Path1,lab_test,,,,1992-05-08T00:15:00
461,Path1,test_report,,,,1992-05-08T00:18:00
462,Path1,send_report,,,,1992-05-08T00:18:00
463,Path1,receive_report,,,,1992-05-08T00:18:00
464,Path1,GP_checks_report,,,,1992-05-08T00:18:00
465,Path1,inform_patient,,,,1992-05-08T00:18:00
466,Path1,Finish,,,,1992-05-08T06:18:00
467,Path1,Finish,,,,1992-05-08T06:18:00
