EventID,pathway,Node,DecisionTable,Attribute,Value,Date
351,Path1,Initial_patient_GP_Visit,,,,1982-03-04T00:00:00
351,Path1,Initial_patient_GP_Visit,,NhsNumber,7832003812,1982-03-04T00:00:00
352,Path1,patient_assessment,,,,1982-03-04T00:00:00
353,Path1,test_request,,,,1982-03-04T00:29:00
354,Path1,Specimen_check,,,,1982-03-04T00:29:00
355,Path1,specimen_ready_for_test,,,,1982-03-04T00:29:00
356,Path1,lab_test,,,,1982-03-04T00:29:00
357,Path1,test_report,,,,1982-03-04T00:45:00
358,Path1,send_report,,,,1982-03-04T00:45:00
359,Path1,receive_report,,,,1982-03-04T00:45:00
360,Path1,GP_checks_report,,,,1982-03-04T00:45:00
361,Path1,inform_patient,,,,1982-03-04T00:45:00
362,Path1,Finish,,,,1982-03-04T01:45:00
363,Path1,Finish,,,,1982-03-04T01:45:00
