EventID,pathway,Node,DecisionTable,Attribute,Value,Date
442,Path1,Initial_patient_GP_Visit,,,,1991-09-20T00:00:00
442,Path1,Initial_patient_GP_Visit,,NhsNumber,7832003812,1991-09-20T00:00:00
443,Path1,patient_assessment,,,,1991-09-20T00:00:00
444,Path1,test_request,,,,1991-09-20T00:21:00
444,Path1,test_request,,no_attr,,1991-09-20T00:21:00
444,Path1,test_request,,PatientRcorded,TRUE,1991-09-20T00:21:00
445,Path1,Specimen_check,,,,1991-09-20T00:21:00
445,Path1,Specimen_check,,PerformingOrg,"{'Code': 'TKD13', 'DisplayName': 'Midtown District Hospital', 'AddressLine': 'Beckett Street', 'AddressCity': 'Leeds', 'AddressDistrict': 'West YorkShire', 'AddressPostalCode': 'LS9 7TF'}",1991-09-20T00:21:00
445,Path1,Specimen_check,,RequestingHCP,"{'Code': 'G6040649', 'DisplayName': 'Dr Jane Green'}",1991-09-20T00:21:00
445,Path1,Specimen_check,,OrgRequesting,"{'Code': 'D82015', 'DisplayName': 'Manor GP Practice', 'AddressLine': '30/32 Bridge Street', 'AddressCity': 'Downham Market', 'AddressDistrict': 'Norfolk', 'AddressPostalCode': 'PE38 9DH'}",1991-09-20T00:21:00
446,Path1,specimen_ready_for_test,,,,1991-09-20T00:21:00
446,Path1,specimen_ready_for_test,,Request,"{'Code': '26604007', 'DisplayName': 'FBC - Full blood count', 'text': 'FBC'}",1991-09-20T00:21:00
446,Path1,specimen_ready_for_test,,CollectingHCP,"{'Code': 'J7040649', 'DisplayName': 'Alice Jones'}",1991-09-20T00:21:00
446,Path1,specimen_ready_for_test,,OrgCollecting,"{'Code': 'D82015', 'DisplayName': 'Manor GP Practice', 'AddressLine': '30/32 Bridge Street', 'AddressCity': 'Downham Market', 'AddressDistrict': 'Norfolk', 'AddressPostalCode': 'PE38 9DH'}",1991-09-20T00:21:00
446,Path1,specimen_ready_for_test,,Specimen1,"{'Code': '53130003', 'DisplayName': 'Venous blood (substance)'}",1991-09-20T00:21:00
446,Path1,specimen_ready_for_test,,Specimen,"{'Code': '53130003', 'DisplayName': 'Venous blood (substance)'}",1991-09-20T00:21:00
447,Path1,lab_test,,,,1991-09-20T00:21:00
448,Path1,test_report,,,,1991-09-20T00:45:00
448,Path1,test_report,,PerformingHCP,"{'Code': 'J7040649', 'DisplayName': 'Alice Jones'}",1991-09-20T00:45:00
448,Path1,test_report,,obs,"OrderedDict([('id', '7'), ('code', '1107411000000100'), ('DisplayName', 'Estimated glomerular filtration rate by laboratory calculation'), ('value', '87'), ('unit', 'mL/min/1.73m2'), ('unit_code', 'mL/min/{1.73_m2}'), ('system', 'http://unitsofmeasure.org')])",1991-09-20T00:45:00
449,Path1,send_report,,,,1991-09-20T00:45:00
450,Path1,receive_report,,,,1991-09-20T00:45:00
450,Path1,receive_report,,Report,"{'Code': '1028441000000104', 'DisplayName': 'Potassium Level (Observable entity)'}",1991-09-20T00:45:00
451,Path1,GP_checks_report,,,,1991-09-20T00:45:00
452,Path1,inform_patient,,,,1991-09-20T00:45:00
453,Path1,Finish,,,,1991-09-20T16:45:00
453,Path1,Finish,,listing_provided,TRUE,1991-09-20T16:45:00
453,Path1,Finish,,json_provided,TRUE,1991-09-20T16:45:00
454,Path1,Finish,,,,1991-09-20T16:45:00
