
timestamp: 1922_10_21
activity_time: 1922-10-21
Hist: {'NhsNumber': [{'value': '7832003812', 'date': '1983-05-25T00:00:00', 'id': UUID('b877bd05-ab2e-4964-8c8e-eeffd8f7325a')}], 'PatientRcorded': [{'value': 'TRUE', 'date': '1983-05-25T00:30:00', 'id': UUID('737664ce-0b1a-418f-ba6e-a21e3729d5d1')}], 'PerformingOrg': [{'value': {'Code': 'TKD13', 'DisplayName': 'Midtown District Hospital', 'AddressLine': 'Beckett Street', 'AddressCity': 'Leeds', 'AddressDistrict': 'West YorkShire', 'AddressPostalCode': 'LS9 7TF'}, 'date': '1983-05-25T00:30:00', 'id': UUID('697d61e3-5daa-44f2-be74-4c63fb40f047')}], 'RequestingHCP': [{'value': {'Code': 'G6040649', 'DisplayName': 'Dr Jane Green'}, 'date': '1983-05-25T00:30:00', 'id': UUID('a655f082-767a-48d9-ad7f-8929616b75e3')}], 'OrgRequesting': [{'value': {'Code': 'D82015', 'DisplayName': 'Manor GP Practice', 'AddressLine': '30/32 Bridge Street', 'AddressCity': 'Downham Market', 'AddressDistrict': 'Norfolk', 'AddressPostalCode': 'PE38 9DH'}, 'date': '1983-05-25T00:30:00', 'id': UUID('85e7205c-0537-4863-a9f3-a87498cf8ae4')}], 'Request': [{'value': {'Code': '26604007', 'DisplayName': 'FBC - Full blood count', 'text': 'FBC'}, 'date': '1983-05-25T00:30:00', 'id': UUID('654fb85d-194c-4dff-b8ca-0baae22673c1')}], 'CollectingHCP': [{'value': {'Code': 'J7040649', 'DisplayName': 'Alice Jones'}, 'date': '1983-05-25T00:30:00', 'id': UUID('08a1ecc0-24ef-4ca0-9e94-1e13ca8f944e')}], 'OrgCollecting': [{'value': {'Code': 'D82015', 'DisplayName': 'Manor GP Practice', 'AddressLine': '30/32 Bridge Street', 'AddressCity': 'Downham Market', 'AddressDistrict': 'Norfolk', 'AddressPostalCode': 'PE38 9DH'}, 'date': '1983-05-25T00:30:00', 'id': UUID('9e2658a5-fe88-4483-81ac-b5dc68060388')}], 'Specimen1': [{'value': {'Code': '53130003', 'DisplayName': 'Venous blood (substance)'}, 'date': '1983-05-25T00:30:00', 'id': UUID('2cb4fc25-f455-485f-9976-4a908f4de8da')}], 'Specimen': [{'value': {'Code': '53130003', 'DisplayName': 'Venous blood (substance)'}, 'date': '1983-05-25T00:30:00', 'id': UUID('051b6ddf-a3ee-4be2-8609-5cae21721640')}], 'PerformingHCP': [{'value': {'Code': 'J7040649', 'DisplayName': 'Alice Jones'}, 'date': '1983-05-25T00:47:00', 'id': UUID('e57e89d9-3ea6-465d-9f98-71e2e3f0cfae')}], 'obs': [{'value': OrderedDict([('id', '8'), ('code', '15331000237104'), ('DisplayName', 'Bilirubin total molar concentration in serum'), ('value', '325'), ('unit', 'umol/L'), ('unit_code', 'umol/L'), ('system', 'http://unitsofmeasure.org')]), 'date': '1983-05-25T00:47:00', 'id': UUID('12f7d6ba-6f13-4355-a1b0-72350d1e7ff9')}], 'Report': [{'value': {'Code': '1028441000000104', 'DisplayName': 'Potassium Level (Observable entity)'}, 'date': '1983-05-25T00:47:00', 'id': UUID('dedc055c-a849-4367-94b4-f4148709ec84')}], 'listing_provided': [{'value': 'TRUE', 'date': '1983-05-25T09:47:00', 'id': UUID('eec68505-9fa7-4503-ac34-1d0fb0ae51cf')}]}
Last: {'NhsNumber': {'value': '7832003812', 'date': '1983-05-25T00:00:00', 'id': UUID('b877bd05-ab2e-4964-8c8e-eeffd8f7325a')}, 'PatientRcorded': {'value': 'TRUE', 'date': '1983-05-25T00:30:00', 'id': UUID('737664ce-0b1a-418f-ba6e-a21e3729d5d1')}, 'PerformingOrg': {'value': {'Code': 'TKD13', 'DisplayName': 'Midtown District Hospital', 'AddressLine': 'Beckett Street', 'AddressCity': 'Leeds', 'AddressDistrict': 'West YorkShire', 'AddressPostalCode': 'LS9 7TF'}, 'date': '1983-05-25T00:30:00', 'id': UUID('697d61e3-5daa-44f2-be74-4c63fb40f047')}, 'RequestingHCP': {'value': {'Code': 'G6040649', 'DisplayName': 'Dr Jane Green'}, 'date': '1983-05-25T00:30:00', 'id': UUID('a655f082-767a-48d9-ad7f-8929616b75e3')}, 'OrgRequesting': {'value': {'Code': 'D82015', 'DisplayName': 'Manor GP Practice', 'AddressLine': '30/32 Bridge Street', 'AddressCity': 'Downham Market', 'AddressDistrict': 'Norfolk', 'AddressPostalCode': 'PE38 9DH'}, 'date': '1983-05-25T00:30:00', 'id': UUID('85e7205c-0537-4863-a9f3-a87498cf8ae4')}, 'Request': {'value': {'Code': '26604007', 'DisplayName': 'FBC - Full blood count', 'text': 'FBC'}, 'date': '1983-05-25T00:30:00', 'id': UUID('654fb85d-194c-4dff-b8ca-0baae22673c1')}, 'CollectingHCP': {'value': {'Code': 'J7040649', 'DisplayName': 'Alice Jones'}, 'date': '1983-05-25T00:30:00', 'id': UUID('08a1ecc0-24ef-4ca0-9e94-1e13ca8f944e')}, 'OrgCollecting': {'value': {'Code': 'D82015', 'DisplayName': 'Manor GP Practice', 'AddressLine': '30/32 Bridge Street', 'AddressCity': 'Downham Market', 'AddressDistrict': 'Norfolk', 'AddressPostalCode': 'PE38 9DH'}, 'date': '1983-05-25T00:30:00', 'id': UUID('9e2658a5-fe88-4483-81ac-b5dc68060388')}, 'Specimen1': {'value': {'Code': '53130003', 'DisplayName': 'Venous blood (substance)'}, 'date': '1983-05-25T00:30:00', 'id': UUID('2cb4fc25-f455-485f-9976-4a908f4de8da')}, 'Specimen': {'value': {'Code': '53130003', 'DisplayName': 'Venous blood (substance)'}, 'date': '1983-05-25T00:30:00', 'id': UUID('051b6ddf-a3ee-4be2-8609-5cae21721640')}, 'PerformingHCP': {'value': {'Code': 'J7040649', 'DisplayName': 'Alice Jones'}, 'date': '1983-05-25T00:47:00', 'id': UUID('e57e89d9-3ea6-465d-9f98-71e2e3f0cfae')}, 'obs': {'value': OrderedDict([('id', '8'), ('code', '15331000237104'), ('DisplayName', 'Bilirubin total molar concentration in serum'), ('value', '325'), ('unit', 'umol/L'), ('unit_code', 'umol/L'), ('system', 'http://unitsofmeasure.org')]), 'date': '1983-05-25T00:47:00', 'id': UUID('12f7d6ba-6f13-4355-a1b0-72350d1e7ff9')}, 'Report': {'value': {'Code': '1028441000000104', 'DisplayName': 'Potassium Level (Observable entity)'}, 'date': '1983-05-25T00:47:00', 'id': UUID('dedc055c-a849-4367-94b4-f4148709ec84')}, 'listing_provided': {'value': 'TRUE', 'date': '1983-05-25T09:47:00', 'id': UUID('eec68505-9fa7-4503-ac34-1d0fb0ae51cf')}}
----------------------------
person['Hist']':  
   NhsNumber: [{'value': '7832003812', 'date': '1983-05-25T00:00:00', 'id': UUID('b877bd05-ab2e-4964-8c8e-eeffd8f7325a')}]
   PatientRcorded: [{'value': 'TRUE', 'date': '1983-05-25T00:30:00', 'id': UUID('737664ce-0b1a-418f-ba6e-a21e3729d5d1')}]
   PerformingOrg: [{'value': {'Code': 'TKD13', 'DisplayName': 'Midtown District Hospital', 'AddressLine': 'Beckett Street', 'AddressCity': 'Leeds', 'AddressDistrict': 'West YorkShire', 'AddressPostalCode': 'LS9 7TF'}, 'date': '1983-05-25T00:30:00', 'id': UUID('697d61e3-5daa-44f2-be74-4c63fb40f047')}]
   RequestingHCP: [{'value': {'Code': 'G6040649', 'DisplayName': 'Dr Jane Green'}, 'date': '1983-05-25T00:30:00', 'id': UUID('a655f082-767a-48d9-ad7f-8929616b75e3')}]
   OrgRequesting: [{'value': {'Code': 'D82015', 'DisplayName': 'Manor GP Practice', 'AddressLine': '30/32 Bridge Street', 'AddressCity': 'Downham Market', 'AddressDistrict': 'Norfolk', 'AddressPostalCode': 'PE38 9DH'}, 'date': '1983-05-25T00:30:00', 'id': UUID('85e7205c-0537-4863-a9f3-a87498cf8ae4')}]
   Request: [{'value': {'Code': '26604007', 'DisplayName': 'FBC - Full blood count', 'text': 'FBC'}, 'date': '1983-05-25T00:30:00', 'id': UUID('654fb85d-194c-4dff-b8ca-0baae22673c1')}]
   CollectingHCP: [{'value': {'Code': 'J7040649', 'DisplayName': 'Alice Jones'}, 'date': '1983-05-25T00:30:00', 'id': UUID('08a1ecc0-24ef-4ca0-9e94-1e13ca8f944e')}]
   OrgCollecting: [{'value': {'Code': 'D82015', 'DisplayName': 'Manor GP Practice', 'AddressLine': '30/32 Bridge Street', 'AddressCity': 'Downham Market', 'AddressDistrict': 'Norfolk', 'AddressPostalCode': 'PE38 9DH'}, 'date': '1983-05-25T00:30:00', 'id': UUID('9e2658a5-fe88-4483-81ac-b5dc68060388')}]
   Specimen1: [{'value': {'Code': '53130003', 'DisplayName': 'Venous blood (substance)'}, 'date': '1983-05-25T00:30:00', 'id': UUID('2cb4fc25-f455-485f-9976-4a908f4de8da')}]
   Specimen: [{'value': {'Code': '53130003', 'DisplayName': 'Venous blood (substance)'}, 'date': '1983-05-25T00:30:00', 'id': UUID('051b6ddf-a3ee-4be2-8609-5cae21721640')}]
   PerformingHCP: [{'value': {'Code': 'J7040649', 'DisplayName': 'Alice Jones'}, 'date': '1983-05-25T00:47:00', 'id': UUID('e57e89d9-3ea6-465d-9f98-71e2e3f0cfae')}]
   obs: [{'value': OrderedDict([('id', '8'), ('code', '15331000237104'), ('DisplayName', 'Bilirubin total molar concentration in serum'), ('value', '325'), ('unit', 'umol/L'), ('unit_code', 'umol/L'), ('system', 'http://unitsofmeasure.org')]), 'date': '1983-05-25T00:47:00', 'id': UUID('12f7d6ba-6f13-4355-a1b0-72350d1e7ff9')}]
   Report: [{'value': {'Code': '1028441000000104', 'DisplayName': 'Potassium Level (Observable entity)'}, 'date': '1983-05-25T00:47:00', 'id': UUID('dedc055c-a849-4367-94b4-f4148709ec84')}]
   listing_provided: [{'value': 'TRUE', 'date': '1983-05-25T09:47:00', 'id': UUID('eec68505-9fa7-4503-ac34-1d0fb0ae51cf')}]
person['Last']':  
   NhsNumber: {'value': '7832003812', 'date': '1983-05-25T00:00:00', 'id': UUID('b877bd05-ab2e-4964-8c8e-eeffd8f7325a')}
   PatientRcorded: {'value': 'TRUE', 'date': '1983-05-25T00:30:00', 'id': UUID('737664ce-0b1a-418f-ba6e-a21e3729d5d1')}
   PerformingOrg: {'value': {'Code': 'TKD13', 'DisplayName': 'Midtown District Hospital', 'AddressLine': 'Beckett Street', 'AddressCity': 'Leeds', 'AddressDistrict': 'West YorkShire', 'AddressPostalCode': 'LS9 7TF'}, 'date': '1983-05-25T00:30:00', 'id': UUID('697d61e3-5daa-44f2-be74-4c63fb40f047')}
   RequestingHCP: {'value': {'Code': 'G6040649', 'DisplayName': 'Dr Jane Green'}, 'date': '1983-05-25T00:30:00', 'id': UUID('a655f082-767a-48d9-ad7f-8929616b75e3')}
   OrgRequesting: {'value': {'Code': 'D82015', 'DisplayName': 'Manor GP Practice', 'AddressLine': '30/32 Bridge Street', 'AddressCity': 'Downham Market', 'AddressDistrict': 'Norfolk', 'AddressPostalCode': 'PE38 9DH'}, 'date': '1983-05-25T00:30:00', 'id': UUID('85e7205c-0537-4863-a9f3-a87498cf8ae4')}
   Request: {'value': {'Code': '26604007', 'DisplayName': 'FBC - Full blood count', 'text': 'FBC'}, 'date': '1983-05-25T00:30:00', 'id': UUID('654fb85d-194c-4dff-b8ca-0baae22673c1')}
   CollectingHCP: {'value': {'Code': 'J7040649', 'DisplayName': 'Alice Jones'}, 'date': '1983-05-25T00:30:00', 'id': UUID('08a1ecc0-24ef-4ca0-9e94-1e13ca8f944e')}
   OrgCollecting: {'value': {'Code': 'D82015', 'DisplayName': 'Manor GP Practice', 'AddressLine': '30/32 Bridge Street', 'AddressCity': 'Downham Market', 'AddressDistrict': 'Norfolk', 'AddressPostalCode': 'PE38 9DH'}, 'date': '1983-05-25T00:30:00', 'id': UUID('9e2658a5-fe88-4483-81ac-b5dc68060388')}
   Specimen1: {'value': {'Code': '53130003', 'DisplayName': 'Venous blood (substance)'}, 'date': '1983-05-25T00:30:00', 'id': UUID('2cb4fc25-f455-485f-9976-4a908f4de8da')}
   Specimen: {'value': {'Code': '53130003', 'DisplayName': 'Venous blood (substance)'}, 'date': '1983-05-25T00:30:00', 'id': UUID('051b6ddf-a3ee-4be2-8609-5cae21721640')}
   PerformingHCP: {'value': {'Code': 'J7040649', 'DisplayName': 'Alice Jones'}, 'date': '1983-05-25T00:47:00', 'id': UUID('e57e89d9-3ea6-465d-9f98-71e2e3f0cfae')}
   obs: {'value': OrderedDict([('id', '8'), ('code', '15331000237104'), ('DisplayName', 'Bilirubin total molar concentration in serum'), ('value', '325'), ('unit', 'umol/L'), ('unit_code', 'umol/L'), ('system', 'http://unitsofmeasure.org')]), 'date': '1983-05-25T00:47:00', 'id': UUID('12f7d6ba-6f13-4355-a1b0-72350d1e7ff9')}
   Report: {'value': {'Code': '1028441000000104', 'DisplayName': 'Potassium Level (Observable entity)'}, 'date': '1983-05-25T00:47:00', 'id': UUID('dedc055c-a849-4367-94b4-f4148709ec84')}
   listing_provided: {'value': 'TRUE', 'date': '1983-05-25T09:47:00', 'id': UUID('eec68505-9fa7-4503-ac34-1d0fb0ae51cf')}