
timestamp: 1922_10_21
activity_time: 1922-10-21
Hist: {'NhsNumber': [{'value': '7832003812', 'date': '1950-04-02T00:00:00', 'id': UUID('af388628-35cd-477b-991b-e02e403603d8')}], 'PatientRcorded': [{'value': 'TRUE', 'date': '1950-04-02T00:21:00', 'id': UUID('3a8ad900-ab72-42c9-8dc3-baaffc4739c8')}], 'PerformingOrg': [{'value': {'Code': 'TKD13', 'DisplayName': 'Midtown District Hospital', 'AddressLine': 'Beckett Street', 'AddressCity': 'Leeds', 'AddressDistrict': 'West YorkShire', 'AddressPostalCode': 'LS9 7TF'}, 'date': '1950-04-02T00:21:00', 'id': UUID('5462dff7-e9a9-4982-a0f2-2d094f065f8c')}], 'RequestingHCP': [{'value': {'Code': 'G6040649', 'DisplayName': 'Dr Jane Green'}, 'date': '1950-04-02T00:21:00', 'id': UUID('f1ecca12-e57a-473a-b821-a6cd808526ab')}], 'OrgRequesting': [{'value': {'Code': 'D82015', 'DisplayName': 'Manor GP Practice', 'AddressLine': '30/32 Bridge Street', 'AddressCity': 'Downham Market', 'AddressDistrict': 'Norfolk', 'AddressPostalCode': 'PE38 9DH'}, 'date': '1950-04-02T00:21:00', 'id': UUID('ea3d1df3-292e-436f-a242-7677a560a1fd')}], 'Request': [{'value': {'Code': '26604007', 'DisplayName': 'FBC - Full blood count', 'text': 'FBC'}, 'date': '1950-04-02T00:21:00', 'id': UUID('6240e396-9252-4d9f-9c7e-b0340e7b89b2')}], 'CollectingHCP': [{'value': {'Code': 'J7040649', 'DisplayName': 'Alice Jones'}, 'date': '1950-04-02T00:21:00', 'id': UUID('91462189-30ce-42a4-acf5-04d1bb74f477')}], 'OrgCollecting': [{'value': {'Code': 'D82015', 'DisplayName': 'Manor GP Practice', 'AddressLine': '30/32 Bridge Street', 'AddressCity': 'Downham Market', 'AddressDistrict': 'Norfolk', 'AddressPostalCode': 'PE38 9DH'}, 'date': '1950-04-02T00:21:00', 'id': UUID('879bcfa4-6881-4899-8723-20477f436b3c')}], 'Specimen1': [{'value': {'Code': '53130003', 'DisplayName': 'Venous blood (substance)'}, 'date': '1950-04-02T00:21:00', 'id': UUID('a1891599-2bfc-4ed1-b694-e202920816f2')}], 'Specimen': [{'value': {'Code': '53130003', 'DisplayName': 'Venous blood (substance)'}, 'date': '1950-04-02T00:21:00', 'id': UUID('3796118f-aff3-4404-a681-0dc328e8a28c')}], 'PerformingHCP': [{'value': {'Code': 'J7040649', 'DisplayName': 'Alice Jones'}, 'date': '1950-04-02T00:39:00', 'id': UUID('28995e4d-65ff-4e67-82ae-7e03e6e87cac')}], 'obs': [{'value': OrderedDict([('id', '5'), ('code', '1106511000000100'), ('DisplayName', 'Chloride substance concentration in serum'), ('value', '105'), ('unit', 'mmol/L'), ('unit_code', 'mmol/L'), ('system', 'http://unitsofmeasure.org')]), 'date': '1950-04-02T00:39:00', 'id': UUID('f6374469-57c2-4789-badf-48ca34ee2fa0')}], 'Report': [{'value': {'Code': '1028441000000104', 'DisplayName': 'Potassium Level (Observable entity)'}, 'date': '1950-04-02T00:39:00', 'id': UUID('ba1da69b-2e95-46b5-9784-9b7da0ede0b8')}], 'listing_provided': [{'value': 'TRUE', 'date': '1950-04-02T11:39:00', 'id': UUID('bd3429ab-c8e1-45ab-982c-b8da64ef7063')}]}
Last: {'NhsNumber': {'value': '7832003812', 'date': '1950-04-02T00:00:00', 'id': UUID('af388628-35cd-477b-991b-e02e403603d8')}, 'PatientRcorded': {'value': 'TRUE', 'date': '1950-04-02T00:21:00', 'id': UUID('3a8ad900-ab72-42c9-8dc3-baaffc4739c8')}, 'PerformingOrg': {'value': {'Code': 'TKD13', 'DisplayName': 'Midtown District Hospital', 'AddressLine': 'Beckett Street', 'AddressCity': 'Leeds', 'AddressDistrict': 'West YorkShire', 'AddressPostalCode': 'LS9 7TF'}, 'date': '1950-04-02T00:21:00', 'id': UUID('5462dff7-e9a9-4982-a0f2-2d094f065f8c')}, 'RequestingHCP': {'value': {'Code': 'G6040649', 'DisplayName': 'Dr Jane Green'}, 'date': '1950-04-02T00:21:00', 'id': UUID('f1ecca12-e57a-473a-b821-a6cd808526ab')}, 'OrgRequesting': {'value': {'Code': 'D82015', 'DisplayName': 'Manor GP Practice', 'AddressLine': '30/32 Bridge Street', 'AddressCity': 'Downham Market', 'AddressDistrict': 'Norfolk', 'AddressPostalCode': 'PE38 9DH'}, 'date': '1950-04-02T00:21:00', 'id': UUID('ea3d1df3-292e-436f-a242-7677a560a1fd')}, 'Request': {'value': {'Code': '26604007', 'DisplayName': 'FBC - Full blood count', 'text': 'FBC'}, 'date': '1950-04-02T00:21:00', 'id': UUID('6240e396-9252-4d9f-9c7e-b0340e7b89b2')}, 'CollectingHCP': {'value': {'Code': 'J7040649', 'DisplayName': 'Alice Jones'}, 'date': '1950-04-02T00:21:00', 'id': UUID('91462189-30ce-42a4-acf5-04d1bb74f477')}, 'OrgCollecting': {'value': {'Code': 'D82015', 'DisplayName': 'Manor GP Practice', 'AddressLine': '30/32 Bridge Street', 'AddressCity': 'Downham Market', 'AddressDistrict': 'Norfolk', 'AddressPostalCode': 'PE38 9DH'}, 'date': '1950-04-02T00:21:00', 'id': UUID('879bcfa4-6881-4899-8723-20477f436b3c')}, 'Specimen1': {'value': {'Code': '53130003', 'DisplayName': 'Venous blood (substance)'}, 'date': '1950-04-02T00:21:00', 'id': UUID('a1891599-2bfc-4ed1-b694-e202920816f2')}, 'Specimen': {'value': {'Code': '53130003', 'DisplayName': 'Venous blood (substance)'}, 'date': '1950-04-02T00:21:00', 'id': UUID('3796118f-aff3-4404-a681-0dc328e8a28c')}, 'PerformingHCP': {'value': {'Code': 'J7040649', 'DisplayName': 'Alice Jones'}, 'date': '1950-04-02T00:39:00', 'id': UUID('28995e4d-65ff-4e67-82ae-7e03e6e87cac')}, 'obs': {'value': OrderedDict([('id', '5'), ('code', '1106511000000100'), ('DisplayName', 'Chloride substance concentration in serum'), ('value', '105'), ('unit', 'mmol/L'), ('unit_code', 'mmol/L'), ('system', 'http://unitsofmeasure.org')]), 'date': '1950-04-02T00:39:00', 'id': UUID('f6374469-57c2-4789-badf-48ca34ee2fa0')}, 'Report': {'value': {'Code': '1028441000000104', 'DisplayName': 'Potassium Level (Observable entity)'}, 'date': '1950-04-02T00:39:00', 'id': UUID('ba1da69b-2e95-46b5-9784-9b7da0ede0b8')}, 'listing_provided': {'value': 'TRUE', 'date': '1950-04-02T11:39:00', 'id': UUID('bd3429ab-c8e1-45ab-982c-b8da64ef7063')}}
----------------------------
person['Hist']':  
   NhsNumber: [{'value': '7832003812', 'date': '1950-04-02T00:00:00', 'id': UUID('af388628-35cd-477b-991b-e02e403603d8')}]
   PatientRcorded: [{'value': 'TRUE', 'date': '1950-04-02T00:21:00', 'id': UUID('3a8ad900-ab72-42c9-8dc3-baaffc4739c8')}]
   PerformingOrg: [{'value': {'Code': 'TKD13', 'DisplayName': 'Midtown District Hospital', 'AddressLine': 'Beckett Street', 'AddressCity': 'Leeds', 'AddressDistrict': 'West YorkShire', 'AddressPostalCode': 'LS9 7TF'}, 'date': '1950-04-02T00:21:00', 'id': UUID('5462dff7-e9a9-4982-a0f2-2d094f065f8c')}]
   RequestingHCP: [{'value': {'Code': 'G6040649', 'DisplayName': 'Dr Jane Green'}, 'date': '1950-04-02T00:21:00', 'id': UUID('f1ecca12-e57a-473a-b821-a6cd808526ab')}]
   OrgRequesting: [{'value': {'Code': 'D82015', 'DisplayName': 'Manor GP Practice', 'AddressLine': '30/32 Bridge Street', 'AddressCity': 'Downham Market', 'AddressDistrict': 'Norfolk', 'AddressPostalCode': 'PE38 9DH'}, 'date': '1950-04-02T00:21:00', 'id': UUID('ea3d1df3-292e-436f-a242-7677a560a1fd')}]
   Request: [{'value': {'Code': '26604007', 'DisplayName': 'FBC - Full blood count', 'text': 'FBC'}, 'date': '1950-04-02T00:21:00', 'id': UUID('6240e396-9252-4d9f-9c7e-b0340e7b89b2')}]
   CollectingHCP: [{'value': {'Code': 'J7040649', 'DisplayName': 'Alice Jones'}, 'date': '1950-04-02T00:21:00', 'id': UUID('91462189-30ce-42a4-acf5-04d1bb74f477')}]
   OrgCollecting: [{'value': {'Code': 'D82015', 'DisplayName': 'Manor GP Practice', 'AddressLine': '30/32 Bridge Street', 'AddressCity': 'Downham Market', 'AddressDistrict': 'Norfolk', 'AddressPostalCode': 'PE38 9DH'}, 'date': '1950-04-02T00:21:00', 'id': UUID('879bcfa4-6881-4899-8723-20477f436b3c')}]
   Specimen1: [{'value': {'Code': '53130003', 'DisplayName': 'Venous blood (substance)'}, 'date': '1950-04-02T00:21:00', 'id': UUID('a1891599-2bfc-4ed1-b694-e202920816f2')}]
   Specimen: [{'value': {'Code': '53130003', 'DisplayName': 'Venous blood (substance)'}, 'date': '1950-04-02T00:21:00', 'id': UUID('3796118f-aff3-4404-a681-0dc328e8a28c')}]
   PerformingHCP: [{'value': {'Code': 'J7040649', 'DisplayName': 'Alice Jones'}, 'date': '1950-04-02T00:39:00', 'id': UUID('28995e4d-65ff-4e67-82ae-7e03e6e87cac')}]
   obs: [{'value': OrderedDict([('id', '5'), ('code', '1106511000000100'), ('DisplayName', 'Chloride substance concentration in serum'), ('value', '105'), ('unit', 'mmol/L'), ('unit_code', 'mmol/L'), ('system', 'http://unitsofmeasure.org')]), 'date': '1950-04-02T00:39:00', 'id': UUID('f6374469-57c2-4789-badf-48ca34ee2fa0')}]
   Report: [{'value': {'Code': '1028441000000104', 'DisplayName': 'Potassium Level (Observable entity)'}, 'date': '1950-04-02T00:39:00', 'id': UUID('ba1da69b-2e95-46b5-9784-9b7da0ede0b8')}]
   listing_provided: [{'value': 'TRUE', 'date': '1950-04-02T11:39:00', 'id': UUID('bd3429ab-c8e1-45ab-982c-b8da64ef7063')}]
person['Last']':  
   NhsNumber: {'value': '7832003812', 'date': '1950-04-02T00:00:00', 'id': UUID('af388628-35cd-477b-991b-e02e403603d8')}
   PatientRcorded: {'value': 'TRUE', 'date': '1950-04-02T00:21:00', 'id': UUID('3a8ad900-ab72-42c9-8dc3-baaffc4739c8')}
   PerformingOrg: {'value': {'Code': 'TKD13', 'DisplayName': 'Midtown District Hospital', 'AddressLine': 'Beckett Street', 'AddressCity': 'Leeds', 'AddressDistrict': 'West YorkShire', 'AddressPostalCode': 'LS9 7TF'}, 'date': '1950-04-02T00:21:00', 'id': UUID('5462dff7-e9a9-4982-a0f2-2d094f065f8c')}
   RequestingHCP: {'value': {'Code': 'G6040649', 'DisplayName': 'Dr Jane Green'}, 'date': '1950-04-02T00:21:00', 'id': UUID('f1ecca12-e57a-473a-b821-a6cd808526ab')}
   OrgRequesting: {'value': {'Code': 'D82015', 'DisplayName': 'Manor GP Practice', 'AddressLine': '30/32 Bridge Street', 'AddressCity': 'Downham Market', 'AddressDistrict': 'Norfolk', 'AddressPostalCode': 'PE38 9DH'}, 'date': '1950-04-02T00:21:00', 'id': UUID('ea3d1df3-292e-436f-a242-7677a560a1fd')}
   Request: {'value': {'Code': '26604007', 'DisplayName': 'FBC - Full blood count', 'text': 'FBC'}, 'date': '1950-04-02T00:21:00', 'id': UUID('6240e396-9252-4d9f-9c7e-b0340e7b89b2')}
   CollectingHCP: {'value': {'Code': 'J7040649', 'DisplayName': 'Alice Jones'}, 'date': '1950-04-02T00:21:00', 'id': UUID('91462189-30ce-42a4-acf5-04d1bb74f477')}
   OrgCollecting: {'value': {'Code': 'D82015', 'DisplayName': 'Manor GP Practice', 'AddressLine': '30/32 Bridge Street', 'AddressCity': 'Downham Market', 'AddressDistrict': 'Norfolk', 'AddressPostalCode': 'PE38 9DH'}, 'date': '1950-04-02T00:21:00', 'id': UUID('879bcfa4-6881-4899-8723-20477f436b3c')}
   Specimen1: {'value': {'Code': '53130003', 'DisplayName': 'Venous blood (substance)'}, 'date': '1950-04-02T00:21:00', 'id': UUID('a1891599-2bfc-4ed1-b694-e202920816f2')}
   Specimen: {'value': {'Code': '53130003', 'DisplayName': 'Venous blood (substance)'}, 'date': '1950-04-02T00:21:00', 'id': UUID('3796118f-aff3-4404-a681-0dc328e8a28c')}
   PerformingHCP: {'value': {'Code': 'J7040649', 'DisplayName': 'Alice Jones'}, 'date': '1950-04-02T00:39:00', 'id': UUID('28995e4d-65ff-4e67-82ae-7e03e6e87cac')}
   obs: {'value': OrderedDict([('id', '5'), ('code', '1106511000000100'), ('DisplayName', 'Chloride substance concentration in serum'), ('value', '105'), ('unit', 'mmol/L'), ('unit_code', 'mmol/L'), ('system', 'http://unitsofmeasure.org')]), 'date': '1950-04-02T00:39:00', 'id': UUID('f6374469-57c2-4789-badf-48ca34ee2fa0')}
   Report: {'value': {'Code': '1028441000000104', 'DisplayName': 'Potassium Level (Observable entity)'}, 'date': '1950-04-02T00:39:00', 'id': UUID('ba1da69b-2e95-46b5-9784-9b7da0ede0b8')}
   listing_provided: {'value': 'TRUE', 'date': '1950-04-02T11:39:00', 'id': UUID('bd3429ab-c8e1-45ab-982c-b8da64ef7063')}