
timestamp: 1922_10_21
activity_time: 1922-10-21
Hist: {'NhsNumber': [{'value': '7832003812', 'date': '2010-03-02T00:00:00', 'id': UUID('16a61443-a6d1-4ca4-97e2-7487e1ca63e9')}], 'PatientRcorded': [{'value': 'TRUE', 'date': '2010-03-02T00:21:00', 'id': UUID('9f1bc532-77dd-4e67-82b8-abe70071f537')}], 'PerformingOrg': [{'value': {'Code': 'TKD13', 'DisplayName': 'Midtown District Hospital', 'AddressLine': 'Beckett Street', 'AddressCity': 'Leeds', 'AddressDistrict': 'West YorkShire', 'AddressPostalCode': 'LS9 7TF'}, 'date': '2010-03-02T00:21:00', 'id': UUID('abca5bff-69b6-4bb8-91dd-7ba9c94fc34a')}], 'RequestingHCP': [{'value': {'Code': 'G6040649', 'DisplayName': 'Dr Jane Green'}, 'date': '2010-03-02T00:21:00', 'id': UUID('ad28816b-48c3-476b-bef0-23872e5f527b')}], 'OrgRequesting': [{'value': {'Code': 'D82015', 'DisplayName': 'Manor GP Practice', 'AddressLine': '30/32 Bridge Street', 'AddressCity': 'Downham Market', 'AddressDistrict': 'Norfolk', 'AddressPostalCode': 'PE38 9DH'}, 'date': '2010-03-02T00:21:00', 'id': UUID('bda8c3a7-b075-4c01-83bf-7a04ab00c3c9')}], 'Request': [{'value': {'Code': '26604007', 'DisplayName': 'FBC - Full blood count', 'text': 'FBC'}, 'date': '2010-03-02T00:21:00', 'id': UUID('d904f742-5055-456c-8f90-05814c1ae897')}], 'CollectingHCP': [{'value': {'Code': 'J7040649', 'DisplayName': 'Alice Jones'}, 'date': '2010-03-02T00:21:00', 'id': UUID('1e0cbbf9-0e7e-4665-84fa-cc79de05e05e')}], 'OrgCollecting': [{'value': {'Code': 'D82015', 'DisplayName': 'Manor GP Practice', 'AddressLine': '30/32 Bridge Street', 'AddressCity': 'Downham Market', 'AddressDistrict': 'Norfolk', 'AddressPostalCode': 'PE38 9DH'}, 'date': '2010-03-02T00:21:00', 'id': UUID('1b6a5c95-8663-4363-8817-7262eb840fd9')}], 'Specimen1': [{'value': {'Code': '53130003', 'DisplayName': 'Venous blood (substance)'}, 'date': '2010-03-02T00:21:00', 'id': UUID('038af2ff-88a6-4740-b80a-0c7b5b0b3ff7')}], 'Specimen': [{'value': {'Code': '53130003', 'DisplayName': 'Venous blood (substance)'}, 'date': '2010-03-02T00:21:00', 'id': UUID('49fc9864-10fe-421e-848e-69c96a8a23ae')}], 'PerformingHCP': [{'value': {'Code': 'J7040649', 'DisplayName': 'Alice Jones'}, 'date': '2010-03-02T00:34:00', 'id': UUID('6f7e7b49-96a6-4ec9-aa8e-d07923f3cfeb')}], 'obs': [{'value': OrderedDict([('id', '6'), ('code', '1107001000000100'), ('DisplayName', 'Creatinine substance concentration in serum'), ('value', '64'), ('unit', 'umol/L'), ('unit_code', 'umol/L'), ('system', 'http://unitsofmeasure.org')]), 'date': '2010-03-02T00:34:00', 'id': UUID('0a0cdbd9-7808-49dd-91c1-d7840a2c6c84')}], 'Report': [{'value': {'Code': '1028441000000104', 'DisplayName': 'Potassium Level (Observable entity)'}, 'date': '2010-03-02T00:34:00', 'id': UUID('04860c19-1bce-4d5c-912d-dd2079b7661c')}], 'listing_provided': [{'value': 'TRUE', 'date': '2010-03-02T21:34:00', 'id': UUID('6f52a713-d5c3-4585-a7fd-6f7b6651a09f')}]}
Last: {'NhsNumber': {'value': '7832003812', 'date': '2010-03-02T00:00:00', 'id': UUID('16a61443-a6d1-4ca4-97e2-7487e1ca63e9')}, 'PatientRcorded': {'value': 'TRUE', 'date': '2010-03-02T00:21:00', 'id': UUID('9f1bc532-77dd-4e67-82b8-abe70071f537')}, 'PerformingOrg': {'value': {'Code': 'TKD13', 'DisplayName': 'Midtown District Hospital', 'AddressLine': 'Beckett Street', 'AddressCity': 'Leeds', 'AddressDistrict': 'West YorkShire', 'AddressPostalCode': 'LS9 7TF'}, 'date': '2010-03-02T00:21:00', 'id': UUID('abca5bff-69b6-4bb8-91dd-7ba9c94fc34a')}, 'RequestingHCP': {'value': {'Code': 'G6040649', 'DisplayName': 'Dr Jane Green'}, 'date': '2010-03-02T00:21:00', 'id': UUID('ad28816b-48c3-476b-bef0-23872e5f527b')}, 'OrgRequesting': {'value': {'Code': 'D82015', 'DisplayName': 'Manor GP Practice', 'AddressLine': '30/32 Bridge Street', 'AddressCity': 'Downham Market', 'AddressDistrict': 'Norfolk', 'AddressPostalCode': 'PE38 9DH'}, 'date': '2010-03-02T00:21:00', 'id': UUID('bda8c3a7-b075-4c01-83bf-7a04ab00c3c9')}, 'Request': {'value': {'Code': '26604007', 'DisplayName': 'FBC - Full blood count', 'text': 'FBC'}, 'date': '2010-03-02T00:21:00', 'id': UUID('d904f742-5055-456c-8f90-05814c1ae897')}, 'CollectingHCP': {'value': {'Code': 'J7040649', 'DisplayName': 'Alice Jones'}, 'date': '2010-03-02T00:21:00', 'id': UUID('1e0cbbf9-0e7e-4665-84fa-cc79de05e05e')}, 'OrgCollecting': {'value': {'Code': 'D82015', 'DisplayName': 'Manor GP Practice', 'AddressLine': '30/32 Bridge Street', 'AddressCity': 'Downham Market', 'AddressDistrict': 'Norfolk', 'AddressPostalCode': 'PE38 9DH'}, 'date': '2010-03-02T00:21:00', 'id': UUID('1b6a5c95-8663-4363-8817-7262eb840fd9')}, 'Specimen1': {'value': {'Code': '53130003', 'DisplayName': 'Venous blood (substance)'}, 'date': '2010-03-02T00:21:00', 'id': UUID('038af2ff-88a6-4740-b80a-0c7b5b0b3ff7')}, 'Specimen': {'value': {'Code': '53130003', 'DisplayName': 'Venous blood (substance)'}, 'date': '2010-03-02T00:21:00', 'id': UUID('49fc9864-10fe-421e-848e-69c96a8a23ae')}, 'PerformingHCP': {'value': {'Code': 'J7040649', 'DisplayName': 'Alice Jones'}, 'date': '2010-03-02T00:34:00', 'id': UUID('6f7e7b49-96a6-4ec9-aa8e-d07923f3cfeb')}, 'obs': {'value': OrderedDict([('id', '6'), ('code', '1107001000000100'), ('DisplayName', 'Creatinine substance concentration in serum'), ('value', '64'), ('unit', 'umol/L'), ('unit_code', 'umol/L'), ('system', 'http://unitsofmeasure.org')]), 'date': '2010-03-02T00:34:00', 'id': UUID('0a0cdbd9-7808-49dd-91c1-d7840a2c6c84')}, 'Report': {'value': {'Code': '1028441000000104', 'DisplayName': 'Potassium Level (Observable entity)'}, 'date': '2010-03-02T00:34:00', 'id': UUID('04860c19-1bce-4d5c-912d-dd2079b7661c')}, 'listing_provided': {'value': 'TRUE', 'date': '2010-03-02T21:34:00', 'id': UUID('6f52a713-d5c3-4585-a7fd-6f7b6651a09f')}}
----------------------------
person['Hist']':  
   NhsNumber: [{'value': '7832003812', 'date': '2010-03-02T00:00:00', 'id': UUID('16a61443-a6d1-4ca4-97e2-7487e1ca63e9')}]
   PatientRcorded: [{'value': 'TRUE', 'date': '2010-03-02T00:21:00', 'id': UUID('9f1bc532-77dd-4e67-82b8-abe70071f537')}]
   PerformingOrg: [{'value': {'Code': 'TKD13', 'DisplayName': 'Midtown District Hospital', 'AddressLine': 'Beckett Street', 'AddressCity': 'Leeds', 'AddressDistrict': 'West YorkShire', 'AddressPostalCode': 'LS9 7TF'}, 'date': '2010-03-02T00:21:00', 'id': UUID('abca5bff-69b6-4bb8-91dd-7ba9c94fc34a')}]
   RequestingHCP: [{'value': {'Code': 'G6040649', 'DisplayName': 'Dr Jane Green'}, 'date': '2010-03-02T00:21:00', 'id': UUID('ad28816b-48c3-476b-bef0-23872e5f527b')}]
   OrgRequesting: [{'value': {'Code': 'D82015', 'DisplayName': 'Manor GP Practice', 'AddressLine': '30/32 Bridge Street', 'AddressCity': 'Downham Market', 'AddressDistrict': 'Norfolk', 'AddressPostalCode': 'PE38 9DH'}, 'date': '2010-03-02T00:21:00', 'id': UUID('bda8c3a7-b075-4c01-83bf-7a04ab00c3c9')}]
   Request: [{'value': {'Code': '26604007', 'DisplayName': 'FBC - Full blood count', 'text': 'FBC'}, 'date': '2010-03-02T00:21:00', 'id': UUID('d904f742-5055-456c-8f90-05814c1ae897')}]
   CollectingHCP: [{'value': {'Code': 'J7040649', 'DisplayName': 'Alice Jones'}, 'date': '2010-03-02T00:21:00', 'id': UUID('1e0cbbf9-0e7e-4665-84fa-cc79de05e05e')}]
   OrgCollecting: [{'value': {'Code': 'D82015', 'DisplayName': 'Manor GP Practice', 'AddressLine': '30/32 Bridge Street', 'AddressCity': 'Downham Market', 'AddressDistrict': 'Norfolk', 'AddressPostalCode': 'PE38 9DH'}, 'date': '2010-03-02T00:21:00', 'id': UUID('1b6a5c95-8663-4363-8817-7262eb840fd9')}]
   Specimen1: [{'value': {'Code': '53130003', 'DisplayName': 'Venous blood (substance)'}, 'date': '2010-03-02T00:21:00', 'id': UUID('038af2ff-88a6-4740-b80a-0c7b5b0b3ff7')}]
   Specimen: [{'value': {'Code': '53130003', 'DisplayName': 'Venous blood (substance)'}, 'date': '2010-03-02T00:21:00', 'id': UUID('49fc9864-10fe-421e-848e-69c96a8a23ae')}]
   PerformingHCP: [{'value': {'Code': 'J7040649', 'DisplayName': 'Alice Jones'}, 'date': '2010-03-02T00:34:00', 'id': UUID('6f7e7b49-96a6-4ec9-aa8e-d07923f3cfeb')}]
   obs: [{'value': OrderedDict([('id', '6'), ('code', '1107001000000100'), ('DisplayName', 'Creatinine substance concentration in serum'), ('value', '64'), ('unit', 'umol/L'), ('unit_code', 'umol/L'), ('system', 'http://unitsofmeasure.org')]), 'date': '2010-03-02T00:34:00', 'id': UUID('0a0cdbd9-7808-49dd-91c1-d7840a2c6c84')}]
   Report: [{'value': {'Code': '1028441000000104', 'DisplayName': 'Potassium Level (Observable entity)'}, 'date': '2010-03-02T00:34:00', 'id': UUID('04860c19-1bce-4d5c-912d-dd2079b7661c')}]
   listing_provided: [{'value': 'TRUE', 'date': '2010-03-02T21:34:00', 'id': UUID('6f52a713-d5c3-4585-a7fd-6f7b6651a09f')}]
person['Last']':  
   NhsNumber: {'value': '7832003812', 'date': '2010-03-02T00:00:00', 'id': UUID('16a61443-a6d1-4ca4-97e2-7487e1ca63e9')}
   PatientRcorded: {'value': 'TRUE', 'date': '2010-03-02T00:21:00', 'id': UUID('9f1bc532-77dd-4e67-82b8-abe70071f537')}
   PerformingOrg: {'value': {'Code': 'TKD13', 'DisplayName': 'Midtown District Hospital', 'AddressLine': 'Beckett Street', 'AddressCity': 'Leeds', 'AddressDistrict': 'West YorkShire', 'AddressPostalCode': 'LS9 7TF'}, 'date': '2010-03-02T00:21:00', 'id': UUID('abca5bff-69b6-4bb8-91dd-7ba9c94fc34a')}
   RequestingHCP: {'value': {'Code': 'G6040649', 'DisplayName': 'Dr Jane Green'}, 'date': '2010-03-02T00:21:00', 'id': UUID('ad28816b-48c3-476b-bef0-23872e5f527b')}
   OrgRequesting: {'value': {'Code': 'D82015', 'DisplayName': 'Manor GP Practice', 'AddressLine': '30/32 Bridge Street', 'AddressCity': 'Downham Market', 'AddressDistrict': 'Norfolk', 'AddressPostalCode': 'PE38 9DH'}, 'date': '2010-03-02T00:21:00', 'id': UUID('bda8c3a7-b075-4c01-83bf-7a04ab00c3c9')}
   Request: {'value': {'Code': '26604007', 'DisplayName': 'FBC - Full blood count', 'text': 'FBC'}, 'date': '2010-03-02T00:21:00', 'id': UUID('d904f742-5055-456c-8f90-05814c1ae897')}
   CollectingHCP: {'value': {'Code': 'J7040649', 'DisplayName': 'Alice Jones'}, 'date': '2010-03-02T00:21:00', 'id': UUID('1e0cbbf9-0e7e-4665-84fa-cc79de05e05e')}
   OrgCollecting: {'value': {'Code': 'D82015', 'DisplayName': 'Manor GP Practice', 'AddressLine': '30/32 Bridge Street', 'AddressCity': 'Downham Market', 'AddressDistrict': 'Norfolk', 'AddressPostalCode': 'PE38 9DH'}, 'date': '2010-03-02T00:21:00', 'id': UUID('1b6a5c95-8663-4363-8817-7262eb840fd9')}
   Specimen1: {'value': {'Code': '53130003', 'DisplayName': 'Venous blood (substance)'}, 'date': '2010-03-02T00:21:00', 'id': UUID('038af2ff-88a6-4740-b80a-0c7b5b0b3ff7')}
   Specimen: {'value': {'Code': '53130003', 'DisplayName': 'Venous blood (substance)'}, 'date': '2010-03-02T00:21:00', 'id': UUID('49fc9864-10fe-421e-848e-69c96a8a23ae')}
   PerformingHCP: {'value': {'Code': 'J7040649', 'DisplayName': 'Alice Jones'}, 'date': '2010-03-02T00:34:00', 'id': UUID('6f7e7b49-96a6-4ec9-aa8e-d07923f3cfeb')}
   obs: {'value': OrderedDict([('id', '6'), ('code', '1107001000000100'), ('DisplayName', 'Creatinine substance concentration in serum'), ('value', '64'), ('unit', 'umol/L'), ('unit_code', 'umol/L'), ('system', 'http://unitsofmeasure.org')]), 'date': '2010-03-02T00:34:00', 'id': UUID('0a0cdbd9-7808-49dd-91c1-d7840a2c6c84')}
   Report: {'value': {'Code': '1028441000000104', 'DisplayName': 'Potassium Level (Observable entity)'}, 'date': '2010-03-02T00:34:00', 'id': UUID('04860c19-1bce-4d5c-912d-dd2079b7661c')}
   listing_provided: {'value': 'TRUE', 'date': '2010-03-02T21:34:00', 'id': UUID('6f52a713-d5c3-4585-a7fd-6f7b6651a09f')}