
timestamp: 1922_10_21
activity_time: 1922-10-21
Hist: {'NhsNumber': [{'value': '7832003812', 'date': '1977-07-20T00:00:00', 'id': UUID('0f4ceeeb-794d-468e-b9ca-0b580117bddf')}], 'PatientRcorded': [{'value': 'TRUE', 'date': '1977-07-20T00:44:00', 'id': UUID('2a911e16-d2d3-4566-acc4-1f02d2d1464c')}], 'PerformingOrg': [{'value': {'Code': 'TKD13', 'DisplayName': 'Midtown District Hospital', 'AddressLine': 'Beckett Street', 'AddressCity': 'Leeds', 'AddressDistrict': 'West YorkShire', 'AddressPostalCode': 'LS9 7TF'}, 'date': '1977-07-20T00:44:00', 'id': UUID('d833a30a-7b19-4d36-8b8c-e95e6a72cb9b')}], 'RequestingHCP': [{'value': {'Code': 'G6040649', 'DisplayName': 'Dr Jane Green'}, 'date': '1977-07-20T00:44:00', 'id': UUID('85a163a1-16f1-422c-8306-ecc9d0821034')}], 'OrgRequesting': [{'value': {'Code': 'D82015', 'DisplayName': 'Manor GP Practice', 'AddressLine': '30/32 Bridge Street', 'AddressCity': 'Downham Market', 'AddressDistrict': 'Norfolk', 'AddressPostalCode': 'PE38 9DH'}, 'date': '1977-07-20T00:44:00', 'id': UUID('74fb9e89-6035-42bd-a629-dda6ba1c02d0')}], 'Request': [{'value': {'Code': '26604007', 'DisplayName': 'FBC - Full blood count', 'text': 'FBC'}, 'date': '1977-07-20T00:44:00', 'id': UUID('3c889f1c-0fc9-415e-b5f7-4d0e16d17a23')}], 'CollectingHCP': [{'value': {'Code': 'J7040649', 'DisplayName': 'Alice Jones'}, 'date': '1977-07-20T00:44:00', 'id': UUID('7dc63e23-0edf-470d-b317-4a1f47e906ec')}], 'OrgCollecting': [{'value': {'Code': 'D82015', 'DisplayName': 'Manor GP Practice', 'AddressLine': '30/32 Bridge Street', 'AddressCity': 'Downham Market', 'AddressDistrict': 'Norfolk', 'AddressPostalCode': 'PE38 9DH'}, 'date': '1977-07-20T00:44:00', 'id': UUID('35f093f4-28d8-4636-a54d-9548879c9347')}], 'Specimen1': [{'value': {'Code': '53130003', 'DisplayName': 'Venous blood (substance)'}, 'date': '1977-07-20T00:44:00', 'id': UUID('589890ab-3430-4e4f-b225-c0c3842cd643')}], 'Specimen': [{'value': {'Code': '53130003', 'DisplayName': 'Venous blood (substance)'}, 'date': '1977-07-20T00:44:00', 'id': UUID('4eefada7-7511-4d9f-ab5e-3d1338d2eae1')}], 'PerformingHCP': [{'value': {'Code': 'J7040649', 'DisplayName': 'Alice Jones'}, 'date': '1977-07-20T00:50:00', 'id': UUID('f6f269cd-fbd2-4f5b-ba78-20c5369045ef')}], 'obs': [{'value': OrderedDict([('id', '2'), ('code', '1107811000000100'), ('DisplayName', 'Prostate specific antigen mass concentration in serum'), ('value', '5.9'), ('unit', 'ug/L'), ('unit_code', 'ug/L'), ('system', 'http://unitsofmeasure.org')]), 'date': '1977-07-20T00:50:00', 'id': UUID('e066c50a-e4d1-4e2e-b992-27acffa9e02d')}], 'Report': [{'value': {'Code': '1028441000000104', 'DisplayName': 'Potassium Level (Observable entity)'}, 'date': '1977-07-20T00:50:00', 'id': UUID('b0f729c1-3dec-4ac3-8a53-97586cabb23e')}], 'listing_provided': [{'value': 'TRUE', 'date': '1977-07-20T04:50:00', 'id': UUID('1b6f9a0a-2178-470b-89ec-8802393a3190')}]}
Last: {'NhsNumber': {'value': '7832003812', 'date': '1977-07-20T00:00:00', 'id': UUID('0f4ceeeb-794d-468e-b9ca-0b580117bddf')}, 'PatientRcorded': {'value': 'TRUE', 'date': '1977-07-20T00:44:00', 'id': UUID('2a911e16-d2d3-4566-acc4-1f02d2d1464c')}, 'PerformingOrg': {'value': {'Code': 'TKD13', 'DisplayName': 'Midtown District Hospital', 'AddressLine': 'Beckett Street', 'AddressCity': 'Leeds', 'AddressDistrict': 'West YorkShire', 'AddressPostalCode': 'LS9 7TF'}, 'date': '1977-07-20T00:44:00', 'id': UUID('d833a30a-7b19-4d36-8b8c-e95e6a72cb9b')}, 'RequestingHCP': {'value': {'Code': 'G6040649', 'DisplayName': 'Dr Jane Green'}, 'date': '1977-07-20T00:44:00', 'id': UUID('85a163a1-16f1-422c-8306-ecc9d0821034')}, 'OrgRequesting': {'value': {'Code': 'D82015', 'DisplayName': 'Manor GP Practice', 'AddressLine': '30/32 Bridge Street', 'AddressCity': 'Downham Market', 'AddressDistrict': 'Norfolk', 'AddressPostalCode': 'PE38 9DH'}, 'date': '1977-07-20T00:44:00', 'id': UUID('74fb9e89-6035-42bd-a629-dda6ba1c02d0')}, 'Request': {'value': {'Code': '26604007', 'DisplayName': 'FBC - Full blood count', 'text': 'FBC'}, 'date': '1977-07-20T00:44:00', 'id': UUID('3c889f1c-0fc9-415e-b5f7-4d0e16d17a23')}, 'CollectingHCP': {'value': {'Code': 'J7040649', 'DisplayName': 'Alice Jones'}, 'date': '1977-07-20T00:44:00', 'id': UUID('7dc63e23-0edf-470d-b317-4a1f47e906ec')}, 'OrgCollecting': {'value': {'Code': 'D82015', 'DisplayName': 'Manor GP Practice', 'AddressLine': '30/32 Bridge Street', 'AddressCity': 'Downham Market', 'AddressDistrict': 'Norfolk', 'AddressPostalCode': 'PE38 9DH'}, 'date': '1977-07-20T00:44:00', 'id': UUID('35f093f4-28d8-4636-a54d-9548879c9347')}, 'Specimen1': {'value': {'Code': '53130003', 'DisplayName': 'Venous blood (substance)'}, 'date': '1977-07-20T00:44:00', 'id': UUID('589890ab-3430-4e4f-b225-c0c3842cd643')}, 'Specimen': {'value': {'Code': '53130003', 'DisplayName': 'Venous blood (substance)'}, 'date': '1977-07-20T00:44:00', 'id': UUID('4eefada7-7511-4d9f-ab5e-3d1338d2eae1')}, 'PerformingHCP': {'value': {'Code': 'J7040649', 'DisplayName': 'Alice Jones'}, 'date': '1977-07-20T00:50:00', 'id': UUID('f6f269cd-fbd2-4f5b-ba78-20c5369045ef')}, 'obs': {'value': OrderedDict([('id', '2'), ('code', '1107811000000100'), ('DisplayName', 'Prostate specific antigen mass concentration in serum'), ('value', '5.9'), ('unit', 'ug/L'), ('unit_code', 'ug/L'), ('system', 'http://unitsofmeasure.org')]), 'date': '1977-07-20T00:50:00', 'id': UUID('e066c50a-e4d1-4e2e-b992-27acffa9e02d')}, 'Report': {'value': {'Code': '1028441000000104', 'DisplayName': 'Potassium Level (Observable entity)'}, 'date': '1977-07-20T00:50:00', 'id': UUID('b0f729c1-3dec-4ac3-8a53-97586cabb23e')}, 'listing_provided': {'value': 'TRUE', 'date': '1977-07-20T04:50:00', 'id': UUID('1b6f9a0a-2178-470b-89ec-8802393a3190')}}
----------------------------
person['Hist']':  
   NhsNumber: [{'value': '7832003812', 'date': '1977-07-20T00:00:00', 'id': UUID('0f4ceeeb-794d-468e-b9ca-0b580117bddf')}]
   PatientRcorded: [{'value': 'TRUE', 'date': '1977-07-20T00:44:00', 'id': UUID('2a911e16-d2d3-4566-acc4-1f02d2d1464c')}]
   PerformingOrg: [{'value': {'Code': 'TKD13', 'DisplayName': 'Midtown District Hospital', 'AddressLine': 'Beckett Street', 'AddressCity': 'Leeds', 'AddressDistrict': 'West YorkShire', 'AddressPostalCode': 'LS9 7TF'}, 'date': '1977-07-20T00:44:00', 'id': UUID('d833a30a-7b19-4d36-8b8c-e95e6a72cb9b')}]
   RequestingHCP: [{'value': {'Code': 'G6040649', 'DisplayName': 'Dr Jane Green'}, 'date': '1977-07-20T00:44:00', 'id': UUID('85a163a1-16f1-422c-8306-ecc9d0821034')}]
   OrgRequesting: [{'value': {'Code': 'D82015', 'DisplayName': 'Manor GP Practice', 'AddressLine': '30/32 Bridge Street', 'AddressCity': 'Downham Market', 'AddressDistrict': 'Norfolk', 'AddressPostalCode': 'PE38 9DH'}, 'date': '1977-07-20T00:44:00', 'id': UUID('74fb9e89-6035-42bd-a629-dda6ba1c02d0')}]
   Request: [{'value': {'Code': '26604007', 'DisplayName': 'FBC - Full blood count', 'text': 'FBC'}, 'date': '1977-07-20T00:44:00', 'id': UUID('3c889f1c-0fc9-415e-b5f7-4d0e16d17a23')}]
   CollectingHCP: [{'value': {'Code': 'J7040649', 'DisplayName': 'Alice Jones'}, 'date': '1977-07-20T00:44:00', 'id': UUID('7dc63e23-0edf-470d-b317-4a1f47e906ec')}]
   OrgCollecting: [{'value': {'Code': 'D82015', 'DisplayName': 'Manor GP Practice', 'AddressLine': '30/32 Bridge Street', 'AddressCity': 'Downham Market', 'AddressDistrict': 'Norfolk', 'AddressPostalCode': 'PE38 9DH'}, 'date': '1977-07-20T00:44:00', 'id': UUID('35f093f4-28d8-4636-a54d-9548879c9347')}]
   Specimen1: [{'value': {'Code': '53130003', 'DisplayName': 'Venous blood (substance)'}, 'date': '1977-07-20T00:44:00', 'id': UUID('589890ab-3430-4e4f-b225-c0c3842cd643')}]
   Specimen: [{'value': {'Code': '53130003', 'DisplayName': 'Venous blood (substance)'}, 'date': '1977-07-20T00:44:00', 'id': UUID('4eefada7-7511-4d9f-ab5e-3d1338d2eae1')}]
   PerformingHCP: [{'value': {'Code': 'J7040649', 'DisplayName': 'Alice Jones'}, 'date': '1977-07-20T00:50:00', 'id': UUID('f6f269cd-fbd2-4f5b-ba78-20c5369045ef')}]
   obs: [{'value': OrderedDict([('id', '2'), ('code', '1107811000000100'), ('DisplayName', 'Prostate specific antigen mass concentration in serum'), ('value', '5.9'), ('unit', 'ug/L'), ('unit_code', 'ug/L'), ('system', 'http://unitsofmeasure.org')]), 'date': '1977-07-20T00:50:00', 'id': UUID('e066c50a-e4d1-4e2e-b992-27acffa9e02d')}]
   Report: [{'value': {'Code': '1028441000000104', 'DisplayName': 'Potassium Level (Observable entity)'}, 'date': '1977-07-20T00:50:00', 'id': UUID('b0f729c1-3dec-4ac3-8a53-97586cabb23e')}]
   listing_provided: [{'value': 'TRUE', 'date': '1977-07-20T04:50:00', 'id': UUID('1b6f9a0a-2178-470b-89ec-8802393a3190')}]
person['Last']':  
   NhsNumber: {'value': '7832003812', 'date': '1977-07-20T00:00:00', 'id': UUID('0f4ceeeb-794d-468e-b9ca-0b580117bddf')}
   PatientRcorded: {'value': 'TRUE', 'date': '1977-07-20T00:44:00', 'id': UUID('2a911e16-d2d3-4566-acc4-1f02d2d1464c')}
   PerformingOrg: {'value': {'Code': 'TKD13', 'DisplayName': 'Midtown District Hospital', 'AddressLine': 'Beckett Street', 'AddressCity': 'Leeds', 'AddressDistrict': 'West YorkShire', 'AddressPostalCode': 'LS9 7TF'}, 'date': '1977-07-20T00:44:00', 'id': UUID('d833a30a-7b19-4d36-8b8c-e95e6a72cb9b')}
   RequestingHCP: {'value': {'Code': 'G6040649', 'DisplayName': 'Dr Jane Green'}, 'date': '1977-07-20T00:44:00', 'id': UUID('85a163a1-16f1-422c-8306-ecc9d0821034')}
   OrgRequesting: {'value': {'Code': 'D82015', 'DisplayName': 'Manor GP Practice', 'AddressLine': '30/32 Bridge Street', 'AddressCity': 'Downham Market', 'AddressDistrict': 'Norfolk', 'AddressPostalCode': 'PE38 9DH'}, 'date': '1977-07-20T00:44:00', 'id': UUID('74fb9e89-6035-42bd-a629-dda6ba1c02d0')}
   Request: {'value': {'Code': '26604007', 'DisplayName': 'FBC - Full blood count', 'text': 'FBC'}, 'date': '1977-07-20T00:44:00', 'id': UUID('3c889f1c-0fc9-415e-b5f7-4d0e16d17a23')}
   CollectingHCP: {'value': {'Code': 'J7040649', 'DisplayName': 'Alice Jones'}, 'date': '1977-07-20T00:44:00', 'id': UUID('7dc63e23-0edf-470d-b317-4a1f47e906ec')}
   OrgCollecting: {'value': {'Code': 'D82015', 'DisplayName': 'Manor GP Practice', 'AddressLine': '30/32 Bridge Street', 'AddressCity': 'Downham Market', 'AddressDistrict': 'Norfolk', 'AddressPostalCode': 'PE38 9DH'}, 'date': '1977-07-20T00:44:00', 'id': UUID('35f093f4-28d8-4636-a54d-9548879c9347')}
   Specimen1: {'value': {'Code': '53130003', 'DisplayName': 'Venous blood (substance)'}, 'date': '1977-07-20T00:44:00', 'id': UUID('589890ab-3430-4e4f-b225-c0c3842cd643')}
   Specimen: {'value': {'Code': '53130003', 'DisplayName': 'Venous blood (substance)'}, 'date': '1977-07-20T00:44:00', 'id': UUID('4eefada7-7511-4d9f-ab5e-3d1338d2eae1')}
   PerformingHCP: {'value': {'Code': 'J7040649', 'DisplayName': 'Alice Jones'}, 'date': '1977-07-20T00:50:00', 'id': UUID('f6f269cd-fbd2-4f5b-ba78-20c5369045ef')}
   obs: {'value': OrderedDict([('id', '2'), ('code', '1107811000000100'), ('DisplayName', 'Prostate specific antigen mass concentration in serum'), ('value', '5.9'), ('unit', 'ug/L'), ('unit_code', 'ug/L'), ('system', 'http://unitsofmeasure.org')]), 'date': '1977-07-20T00:50:00', 'id': UUID('e066c50a-e4d1-4e2e-b992-27acffa9e02d')}
   Report: {'value': {'Code': '1028441000000104', 'DisplayName': 'Potassium Level (Observable entity)'}, 'date': '1977-07-20T00:50:00', 'id': UUID('b0f729c1-3dec-4ac3-8a53-97586cabb23e')}
   listing_provided: {'value': 'TRUE', 'date': '1977-07-20T04:50:00', 'id': UUID('1b6f9a0a-2178-470b-89ec-8802393a3190')}