{ "Patient Name":"Slater, Tegan",
"NHS Number": "7832003812",
"Patient id": "f8d2f339-e8e6-4591-bb49-3a573484671b",
"DOB": "",
"Gender": "",
"Postal address": "",
"Email": "",
"Phone": "",
"Hospital / Practice Number": "",
"GP Name": "",
"GP postal address": "",
"GP Email": "",
"GP Phone": "" }