{ "Patient Name":"Parker, Daisy",
"NHS Number": "7832003812",
"Patient id": "73504e65-d967-49a6-986c-df8b331b04ba",
"DOB": "",
"Gender": "",
"Postal address": "",
"Email": "",
"Phone": "",
"Hospital / Practice Number": "",
"GP Name": "",
"GP postal address": "",
"GP Email": "",
"GP Phone": "" }