{ "Patient Name":"Clarke, James",
"NHS Number": "7832003812",
"Patient id": "fca043eb-c3a9-4dbd-aebb-9ffde6fb1e60",
"DOB": "",
"Gender": "",
"Postal address": "",
"Email": "",
"Phone": "",
"Hospital / Practice Number": "",
"GP Name": "",
"GP postal address": "",
"GP Email": "",
"GP Phone": "" }