{ "Patient Name":"Davies, Anna",
"NHS Number": "7832003812",
"Patient id": "b9b90260-579a-4282-9e94-0edb36e71e1f",
"DOB": "",
"Gender": "",
"Postal address": "",
"Email": "",
"Phone": "",
"Hospital / Practice Number": "",
"GP Name": "",
"GP postal address": "",
"GP Email": "",
"GP Phone": "" }