{ "Patient Name":"Metcalfe, Amy",
"NHS Number": "7832003812",
"Patient id": "e6cc1b8e-16cf-409c-8895-e3e9b83bcba2",
"DOB": "",
"Gender": "",
"Postal address": "",
"Email": "",
"Phone": "",
"Hospital / Practice Number": "",
"GP Name": "",
"GP postal address": "",
"GP Email": "",
"GP Phone": "" }