<Organization>
    <id value="181e4660-b893-45d2-8fa5-667090880502"/>
    <meta>
        <profile value="https://fhir.hl7.org.uk/STU3/StructureDefinition/CareConnect-Organization-1"/>
    </meta>
    <identifier>
        <system value="https://fhir.nhs.uk/Id/ods-organization-code"/>
        <value value="D82015"/>
    </identifier>
    <!--
    <name value="Manor GP Practice"/>
    <address>
        <line value="30/32 Bridge Street"/>
        <city value="Downham Market"/>
        <district value="Norfolk"/>
        <postalCode value="PE38 9DH"/>
    </address>
    -->
</Organization>