<Patient>
    <id value="4ef46731-41a0-429f-8d68-0db60c978cbe"/>
    <meta>
        <profile value="https://fhir.hl7.org.uk/STU3/StructureDefinition/CareConnect-Patient-1"/>
    </meta>
    <identifier>
        <extension url="https://fhir.hl7.org.uk/STU3/StructureDefinition/Extension-CareConnect-NHSNumberVerificationStatus-1">
            <valueCodeableConcept>
                <coding>
                    <system value="https://fhir.hl7.org.uk/STU3/CodeSystem/CareConnect-NHSNumberVerificationStatus-1"/>
                    <code value="01"/>
                    <display value="Number present and verified"/>
                </coding>
            </valueCodeableConcept>
        </extension>
        <system value="https://fhir.nhs.uk/Id/nhs-number"/>
        <value value="7832003812"/>
    </identifier>
    <name>
        <use value="official"/>
        <family value="Price"/>
        <given value="Anna"/>
    </name>
</Patient>