<Practitioner>
    <id value="5e4b3991-ec64-4e7c-b1c4-8a2a08162ba9"/>
    <meta>
        <profile value="https://fhir.hl7.org.uk/STU3/StructureDefinition/CareConnect-Practitioner-1"/>
    </meta>
    <identifier>
        <system value="https://fhir.nhs.uk/Id/sds-user-id"/>
        <value value="G6040649"/>
    </identifier>
    <name>
        <text value="Dr Jane Green"/>
    </name>
</Practitioner>