<Practitioner>
    <id value="4dfb8d2a-251c-4335-96a0-1cfcedca8aae"/>
    <meta>
        <profile value="https://fhir.hl7.org.uk/STU3/StructureDefinition/CareConnect-Practitioner-1"/>
    </meta>
    <identifier>
        <system value="https://fhir.nhs.uk/Id/sds-user-id"/>
        <value value="G6040649"/>
    </identifier>
    <name>
        <text value="Dr Jane Green"/>
    </name>
</Practitioner>