{ "Specimen name": "Venous blood (substance)",
"Specimen id": "fafa0558-4acd-430e-8377-1841d6b2e98d",
"Specimen collection date time": "2008-07-23T00:12:00",
"Specimen received date time": "2008-07-23T00:12:00",
"Specimen source": "" ,
"State": "",
"Volume": "",
"Units of Measure": "" }
