{ "Specimen name": "Venous blood (substance)",
"Specimen id": "24539aaf-bc31-4810-9bde-6068447f52d5",
"Specimen collection date time": "1979-10-16T00:34:00",
"Specimen received date time": "1979-10-16T00:34:00",
"Specimen source": "" ,
"State": "",
"Volume": "",
"Units of Measure": "" }
