{ "Specimen name": "Venous blood (substance)",
"Specimen id": "038af2ff-88a6-4740-b80a-0c7b5b0b3ff7",
"Specimen collection date time": "2010-03-02T00:21:00",
"Specimen received date time": "2010-03-02T00:21:00",
"Specimen source": "" ,
"State": "",
"Volume": "",
"Units of Measure": "" }
