{ "Specimen name": "Venous blood (substance)",
"Specimen id": "a1891599-2bfc-4ed1-b694-e202920816f2",
"Specimen collection date time": "1950-04-02T00:21:00",
"Specimen received date time": "1950-04-02T00:21:00",
"Specimen source": "" ,
"State": "",
"Volume": "",
"Units of Measure": "" }
