{ "Specimen name": "Venous blood (substance)",
"Specimen id": "dae7b6f9-7194-44f4-8af8-6f63909b20e1",
"Specimen collection date time": "1993-07-19T00:26:00",
"Specimen received date time": "1993-07-19T00:26:00",
"Specimen source": "" ,
"State": "",
"Volume": "",
"Units of Measure": "" }
