{ "Specimen name": "Venous blood (substance)",
"Specimen id": "a8aca179-868f-4952-b753-bea65fe8439b",
"Specimen collection date time": "2005-09-02T00:23:00",
"Specimen received date time": "2005-09-02T00:23:00",
"Specimen source": "" ,
"State": "",
"Volume": "",
"Units of Measure": "" }
