{ "Specimen name": "Venous blood (substance)",
"Specimen id": "624ba972-2627-4e76-8114-91ad69ad9aca",
"Specimen collection date time": "1974-05-15T00:48:00",
"Specimen received date time": "1974-05-15T00:48:00",
"Specimen source": "" ,
"State": "",
"Volume": "",
"Units of Measure": "" }
