{ "Specimen name": "Venous blood (substance)",
"Specimen id": "31f092b9-d278-40a7-8223-180c6caccaca",
"Specimen collection date time": "1963-11-17T00:28:00",
"Specimen received date time": "1963-11-17T00:28:00",
"Specimen source": "" ,
"State": "",
"Volume": "",
"Units of Measure": "" }
