{ "Specimen name": "Venous blood (substance)",
"Specimen id": "4288b8dc-5313-4d25-a47a-7c2c1365148e",
"Specimen collection date time": "1927-11-19T00:10:00",
"Specimen received date time": "1927-11-19T00:10:00",
"Specimen source": "" ,
"State": "",
"Volume": "",
"Units of Measure": "" }
