{ "Specimen name": "Venous blood (substance)",
"Specimen id": "8d9a473c-2d3d-4ce0-b5e4-a5cfc1bb6ff3",
"Specimen collection date time": "1987-03-04T00:28:00",
"Specimen received date time": "1987-03-04T00:28:00",
"Specimen source": "" ,
"State": "",
"Volume": "",
"Units of Measure": "" }
