{ "Specimen name": "Venous blood (substance)",
"Specimen id": "d95ab67a-66f0-4187-b746-f9e389dbdfff",
"Specimen collection date time": "1973-12-22T00:20:00",
"Specimen received date time": "1973-12-22T00:20:00",
"Specimen source": "" ,
"State": "",
"Volume": "",
"Units of Measure": "" }
