{ "Specimen name": "Venous blood (substance)",
"Specimen id": "9c61b6a3-358a-4fac-b888-4d7e1b36b01d",
"Specimen collection date time": "2020-03-12T00:48:00",
"Specimen received date time": "2020-03-12T00:48:00",
"Specimen source": "" ,
"State": "",
"Volume": "",
"Units of Measure": "" }
